Division,WeightClassKg,Place,Name,Team,BodyweightKg,Best3SquatKg,Best3BenchKg,Best3DeadliftKg,TotalKg,Equipment,Event,Sex,BirthDate
Boys,51.71,1,Jonah Lopez,San Antonio Memorial,50.98,149.69,72.57,163.29,385.55,Single-ply,SBD,M,
Boys,51.71,2,Christopher Reyes,San Antonio Brooks Academy,50.94,115.67,65.77,133.81,315.25,Single-ply,SBD,M,
Boys,51.71,3,Chris Cancino,San Antonio Cole,47.99,102.06,70.31,108.86,281.23,Single-ply,SBD,M,
Boys,55.79,1,Angelo Legaspe,San Antonio Cole,52.21,136.08,79.38,142.88,358.34,Single-ply,SBD,M,
Boys,55.79,2,Jonathan Larralde,San Antonio Brooks Academy,55.52,117.93,65.77,124.74,308.44,Single-ply,SBD,M,
Boys,55.79,3,Hugo Rosales,Del Rio,55.75,108.86,52.16,124.74,285.76,Single-ply,SBD,M,
Boys,55.79,4,Ian Solano,San Antonio Holy Cross,55.07,102.06,56.7,106.59,265.35,Single-ply,SBD,M,
Boys,59.87,1,Dedrick Querner,Jourdanton,59.38,195.04,104.33,208.65,508.02,Single-ply,SBD,M,
Boys,59.87,2,Diego Morales,Castroville Medina Valley,56.43,197.31,113.4,190.51,501.22,Single-ply,SBD,M,
Boys,59.87,3,Samuel Flores,Del Rio,58.88,127.01,92.99,142.88,362.87,Single-ply,SBD,M,
Boys,59.87,4,Nacious Jacquez,San Antonio Kennedy,58.6,127.01,72.57,142.88,342.46,Single-ply,SBD,M,
Boys,59.87,5,Dylan Fraga,Runge,59.69,120.2,79.38,142.88,342.46,Single-ply,SBD,M,
Boys,59.87,6,Aric Querner,Jourdanton,58.42,102.06,56.7,122.47,281.23,Single-ply,SBD,M,
Boys,59.87,DQ,Christian Salazar,San Antonio Kennedy,57.24,,,,,Single-ply,SBD,M,
Boys,59.87,DQ,Joe Fraga,Runge,58.51,,,,,Single-ply,SBD,M,
Boys,59.87,DQ,Matthew Flores,San Antonio Brooks Academy,57.74,127.01,,,,Single-ply,SBD,M,
Boys,59.87,DQ,Jorge Vicen,San Antonio Brooks Academy,57.88,,,,,Single-ply,SBD,M,
Boys,67.13,1,Joshua Bazan,Castroville Medina Valley,65.36,217.72,127.01,210.92,555.65,Single-ply,SBD,M,
Boys,67.13,2,Alex Villarreal,San Antonio Memorial,66.45,195.04,104.33,197.31,496.68,Single-ply,SBD,M,
Boys,67.13,3,Quen Syma,Lytle,65.59,190.51,113.4,179.17,483.08,Single-ply,SBD,M,
Boys,67.13,4,Brian Burns,Bandera,67.04,185.97,104.33,183.7,474,Single-ply,SBD,M,
Boys,67.13,5,Trent Jones,Runge,66.86,165.56,90.72,179.17,435.45,Single-ply,SBD,M,
Boys,67.13,6,Rene Jimenez,San Antonio Memorial,61.33,149.69,92.99,179.17,421.84,Single-ply,SBD,M,
Boys,67.13,7,Francisco Huerta,Yoakum,66.27,163.29,88.45,167.83,419.57,Single-ply,SBD,M,
Boys,67.13,8,Rene Carrasco,Del Rio,66.36,154.22,99.79,158.76,412.77,Single-ply,SBD,M,
Boys,67.13,9,Alex Garcia #12,Del Rio,64.32,147.42,95.25,158.76,401.43,Single-ply,SBD,M,
Boys,67.13,10,Cody Jurecski,Bandera,62.69,124.74,68.04,136.08,328.85,Single-ply,SBD,M,
Boys,67.13,DQ,Gavin Gutierrez,Runge,60.06,129.27,,,,Single-ply,SBD,M,
Boys,74.84,1,Trevon Moore,Universal City Randolph,72.26,195.04,120.2,181.44,496.68,Single-ply,SBD,M,
Boys,74.84,2,Maximus Hill,Universal City Randolph,68.86,183.7,113.4,190.51,487.61,Single-ply,SBD,M,
Boys,74.84,3,Cecil Olivarri,Lytle,72.67,183.7,102.06,183.7,469.47,Single-ply,SBD,M,
Boys,74.84,4,Ramiro Torres,Runge,74.34,176.9,108.86,156.49,442.25,Single-ply,SBD,M,
Boys,74.84,5,Matthew Stanton,Bandera,70.44,165.56,99.79,163.29,428.64,Single-ply,SBD,M,
Boys,74.84,6,Joseph Trevino,San Antonio Holy Cross,67.99,149.69,88.45,165.56,403.7,Single-ply,SBD,M,
Boys,74.84,7,Jake Parks-Franco,Rocksprings,71.67,124.74,102.06,151.95,378.75,Single-ply,SBD,M,
Boys,74.84,DQ,Jason Vega,Lytle,73.57,158.76,,,,Single-ply,SBD,M,
Boys,82.1,1,Tyler Felux,San Antonio Brooks Academy,79.29,219.99,133.81,204.12,557.92,Single-ply,SBD,M,
Boys,82.1,2,Zakary Widenor,Bandera,81.51,204.12,117.93,226.8,548.85,Single-ply,SBD,M,
Boys,82.1,3,Hayden Harris,Jourdanton,75.84,174.63,124.74,183.7,483.08,Single-ply,SBD,M,
Boys,82.1,4,Carson Morris,Universal City Randolph,80.2,163.29,97.52,183.7,444.52,Single-ply,SBD,M,
Boys,82.1,5,Chris Verdin,Jourdanton,80.65,151.95,79.38,188.24,419.57,Single-ply,SBD,M,
Boys,82.1,6,Everett Penalver,San Antonio Kennedy,80.15,151.95,81.65,170.1,403.7,Single-ply,SBD,M,
Boys,82.1,7,Ethan Hyde,Rocksprings,80.01,156.49,88.45,156.49,401.43,Single-ply,SBD,M,
Boys,82.1,8,Joshua Sanchez,San Antonio Brooks Academy,81.19,102.06,61.23,129.27,292.57,Single-ply,SBD,M,
Boys,82.1,DQ,Marco Burkmen,San Antonio Cole,81.19,,,,,Single-ply,SBD,M,
Boys,82.1,DQ,Hector Gomez,Del Rio,81.6,,,,,Single-ply,SBD,M,
Boys,89.81,1,Alejandro Flores,Del Rio,89.4,231.33,145.15,249.48,625.96,Single-ply,SBD,M,
Boys,89.81,2,Carlos Verdin,Jourdanton,89.49,249.48,149.69,215.46,614.62,Single-ply,SBD,M,
Boys,89.81,3,Ethan Thomas,Geronimo Navarro,82.55,201.85,149.69,190.51,542.04,Single-ply,SBD,M,
Boys,89.81,4,Jacob Olivares,San Antonio Holy Cross,85.55,204.12,106.59,222.26,532.97,Single-ply,SBD,M,
Boys,89.81,5,Zach Lawyer,Castroville Medina Valley,89.81,192.78,108.86,210.92,512.56,Single-ply,SBD,M,
Boys,89.81,6,Austin Montanez,San Antonio Cole,88.63,204.12,97.52,204.12,505.76,Single-ply,SBD,M,
Boys,89.81,7,Daniel Mendoza,Runge,85.73,192.78,108.86,199.58,501.22,Single-ply,SBD,M,
Boys,89.81,8,Mauricio Pecina,Yoakum,87.72,197.31,108.86,185.97,492.15,Single-ply,SBD,M,
Boys,89.81,9,Colby Kenedy,Bandera,88.59,165.56,117.93,199.58,483.08,Single-ply,SBD,M,
Boys,89.81,10,Timothy Rios,Castroville Medina Valley,89.81,174.63,111.13,192.78,478.54,Single-ply,SBD,M,
Boys,89.81,11,Romelo Portillo,San Antonio Holy Cross,82.78,172.37,108.86,192.78,474,Single-ply,SBD,M,
Boys,89.81,12,Anthony Rodriguez,San Antonio Holy Cross,86.91,149.69,102.06,183.7,435.45,Single-ply,SBD,M,
Boys,89.81,13,Joseph Rodriguez,San Antonio Kennedy,85.23,156.49,86.18,181.44,424.11,Single-ply,SBD,M,
Boys,89.81,14,Lance Nielson,San Antonio Brooks Academy,84.46,124.74,63.5,163.29,351.53,Single-ply,SBD,M,
Boys,89.81,15,Jacinto Rodriguez,Geronimo Navarro,87.63,124.74,65.77,154.22,344.73,Single-ply,SBD,M,
Boys,89.81,16,Lars Nielson,San Antonio Brooks Academy,83.91,111.13,63.5,158.76,333.39,Single-ply,SBD,M,
Boys,89.81,17,Isaac Guerrero,Geronimo Navarro,83.73,106.59,74.84,122.47,303.91,Single-ply,SBD,M,
Boys,89.81,DQ,Seth Bullard,Castroville Medina Valley,88.72,,,,,Single-ply,SBD,M,
Boys,99.79,1,Tristan Medrano,Del Rio,99.16,242.67,181.44,233.6,657.71,Single-ply,SBD,M,
Boys,99.79,2,David Reyna,Geronimo Navarro,94.71,260.82,165.56,213.19,639.57,Single-ply,SBD,M,
Boys,99.79,3,Nathaniel Trinidad,San Antonio Holy Cross,98.34,215.46,138.35,231.33,585.13,Single-ply,SBD,M,
Boys,99.79,4,Michael Cepedes,Universal City Randolph,98.38,231.33,104.33,204.12,539.77,Single-ply,SBD,M,
Boys,99.79,5,Miguel Buenrostro,Yoakum,91.44,183.7,95.25,206.38,485.34,Single-ply,SBD,M,
Boys,99.79,6,Garrett Garcia,Universal City Randolph,93.17,183.7,83.91,195.04,462.66,Single-ply,SBD,M,
Boys,99.79,7,Francisco Osoria,San Antonio Memorial,90.95,181.44,106.59,167.83,455.86,Single-ply,SBD,M,
Boys,99.79,8,Corey Hunter,San Antonio Cole,98.25,167.83,92.99,190.51,451.32,Single-ply,SBD,M,
Boys,99.79,9,Jonathon Rodriguez,San Antonio Kennedy,99.06,127.01,74.84,167.83,369.68,Single-ply,SBD,M,
Boys,109.77,1,Issac Paredes,Jourdanton,100.88,272.16,183.7,249.48,705.34,Single-ply,SBD,M,
Boys,109.77,2,Abraham Rosas,Del Rio,106.37,267.62,136.08,263.08,666.78,Single-ply,SBD,M,
Boys,109.77,3,Cole Booker,Geronimo Navarro,104.01,240.4,142.88,244.94,628.23,Single-ply,SBD,M,
Boys,109.77,4,Jaden Arthur,Universal City Randolph,100.88,258.55,117.93,249.48,625.96,Single-ply,SBD,M,
Boys,109.77,5,Issac Salazar,Del Rio,108.82,219.99,133.81,215.46,569.26,Single-ply,SBD,M,
Boys,109.77,6,Brandon Glaspie,Universal City Randolph,104.28,222.26,131.54,204.12,557.92,Single-ply,SBD,M,
Boys,109.77,7,Cyrus Vaughn,San Antonio Cole,103.6,204.12,95.25,204.12,503.49,Single-ply,SBD,M,
Boys,109.77,8,Jacob Palacio,Rocksprings,105.28,176.9,122.47,188.24,487.61,Single-ply,SBD,M,
Boys,109.77,9,Reymundo Arellano,San Antonio Memorial,109.36,170.1,111.13,174.63,455.86,Single-ply,SBD,M,
Boys,109.77,10,Freddy Martinez,Jourdanton,106.28,158.76,95.25,188.24,442.25,Single-ply,SBD,M,
Boys,109.77,11,Matthew Mariscal,Yoakum,103.1,172.37,92.99,158.76,424.11,Single-ply,SBD,M,
Boys,109.77,12,Mark Rangel,Geronimo Navarro,102.87,111.13,83.91,127.01,322.05,Single-ply,SBD,M,
Boys,109.77,DQ,Hunter Sanchez,Castroville Medina Valley,108.59,192.78,158.76,,,Single-ply,SBD,M,
Boys,124.74,1,Nathan Palacio,San Antonio Memorial,114.94,274.42,154.22,249.48,678.12,Single-ply,SBD,M,
Boys,124.74,2,Nathan Cavazos,San Antonio Holy Cross,122.15,258.55,129.27,233.6,621.42,Single-ply,SBD,M,
Boys,124.74,3,Colton Perkins,Bandera,111.04,235.87,149.69,219.99,605.55,Single-ply,SBD,M,
Boys,124.74,4,Gabriel Aguirre,Del Rio,120.16,204.12,106.59,238.14,548.85,Single-ply,SBD,M,
Boys,124.74,5,Gabriel Heimer,San Antonio Brooks Academy,122.06,204.12,165.56,176.9,546.58,Single-ply,SBD,M,
Boys,124.74,6,Michael Cazaras,Jourdanton,119.93,210.92,113.4,204.12,528.44,Single-ply,SBD,M,
Boys,124.74,7,Jordan Guerra,San Antonio Holy Cross,124.06,195.04,92.99,217.72,505.76,Single-ply,SBD,M,
Boys,124.74,8,Moses Cortez,Castroville Medina Valley,124.74,192.78,129.27,181.44,503.49,Single-ply,SBD,M,
Boys,124.74,9,Jalen Winebrenner,Universal City Randolph,118.98,167.83,127.01,181.44,476.27,Single-ply,SBD,M,
Boys,124.74,10,Brandon Laureano,San Antonio Brooks Academy,117.3,117.93,65.77,154.22,337.93,Single-ply,SBD,M,
Boys,124.74,DQ,Paul Zertuche,Castroville Medina Valley,118.02,,,,,Single-ply,SBD,M,
Boys,124.74,DQ,Alex Funnes,Geronimo Navarro,114.58,206.38,,,,Single-ply,SBD,M,
Boys,124.74+,1,Sergio Hernandez,Geronimo Navarro,158.71,310.71,208.65,256.28,775.64,Single-ply,SBD,M,
Boys,124.74+,2,Jesus Borroel,San Antonio Memorial,142.7,276.69,138.35,256.28,671.32,Single-ply,SBD,M,
Boys,124.74+,3,Abraham Hernandez,Castroville Medina Valley,128.23,226.8,129.27,231.33,587.4,Single-ply,SBD,M,
Boys,124.74+,4,Marcos Coronado,San Antonio Holy Cross,174.18,213.19,104.33,231.33,548.85,Single-ply,SBD,M,
Boys,124.74+,5,Manual Belmarez,San Antonio Memorial,125.83,219.99,127.01,167.83,514.83,Single-ply,SBD,M,
Boys,124.74+,6,Tyler Martinez #3,Jourdanton,126.64,124.74,77.11,170.1,371.95,Single-ply,SBD,M,
Boys,124.74+,DQ,Matt Garces,Castroville Medina Valley,178.31,322.05,,,,Single-ply,SBD,M,
