Division,WeightClassKg,Place,Name,Team,BodyweightKg,Best3SquatKg,Best3BenchKg,Best3DeadliftKg,TotalKg,Equipment,Event,Sex
Boys,55.79,1,Mikey Gomez,Kyle Lehman,51.8,138.35,77.11,147.42,362.87,Single-ply,SBD,M
Boys,51.71,2,Isaac Trejo,San Marcos,51.53,74.84,52.16,102.06,229.06,Single-ply,SBD,M
Boys,51.71,3,DJ Walker,Georgetown East View,45.9,77.11,43.09,90.72,210.92,Single-ply,SBD,M
Boys,59.87,1,Jaydan Martinez,Kyle Lehman,55.97,138.35,79.38,154.22,371.95,Single-ply,SBD,M
Boys,55.79,2,Austin Carrow,Austin Lake Travis,55.7,122.47,86.18,138.35,347,Single-ply,SBD,M
Boys,55.79,3,Enrique Vences,Bastrop Cedar Creek,55.52,120.2,77.11,133.81,331.12,Single-ply,SBD,M
Boys,55.79,4,Owen Mallard,Georgetown,55.43,122.47,61.23,138.35,322.05,Single-ply,SBD,M
Boys,55.79,5,Michael Maurillo,Georgetown East View,53.98,108.86,58.97,108.86,276.69,Single-ply,SBD,M
Boys,55.79,6,Zuri Chairez,San Marcos,55.34,83.91,49.9,117.93,251.74,Single-ply,SBD,M
Boys,55.79,DQ,Abel Montemayor,Waco University,54.52,,,,,Single-ply,SBD,M
Boys,55.79,DQ,Jose Ramirez #18,Elgin,52.98,,,,,Single-ply,SBD,M
Boys,59.87,1,Josh Bedolla,Elgin,59.87,192.78,120.2,208.65,521.63,Single-ply,SBD,M
Boys,59.87,2,Dominic Hamilton,Georgetown East View,59.06,147.42,79.38,154.22,381.02,Single-ply,SBD,M
Boys,67.13,3,Rey Hernandez,Bastrop Cedar Creek,60.06,136.08,72.57,156.49,365.14,Single-ply,SBD,M
Boys,59.87,4,Chris Guerra,Georgetown East View,58.24,115.67,81.65,131.54,328.85,Single-ply,SBD,M
Boys,59.87,5,Josh Banda,San Marcos,57.24,104.33,72.57,136.08,312.98,Single-ply,SBD,M
Boys,59.87,6,Daniel Mireles,Georgetown East View,59.06,108.86,77.11,127.01,312.98,Single-ply,SBD,M
Boys,59.87,7,Eric Guerrero,San Marcos,56.97,99.79,65.77,120.2,285.76,Single-ply,SBD,M
Boys,59.87,DQ,Brodie Sparkman,Georgetown,59.24,117.93,63.5,115.67,,Single-ply,SBD,M
Boys,59.87,DQ,Dom Ubias,Elgin,56.97,,,,,Single-ply,SBD,M
Boys,59.87,DQ,Estefano Lopez,Waco University,59.06,,,,,Single-ply,SBD,M
Boys,67.13,1,Lorenzo Sanchez,Taylor,63.68,185.97,106.59,210.92,503.49,Single-ply,SBD,M
Boys,67.13,2,Anthony Ortegon,Georgetown East View,66.95,172.37,106.59,192.78,471.74,Single-ply,SBD,M
Boys,67.13,3,Isaac Johnson,Elgin,65.41,183.7,88.45,190.51,462.66,Single-ply,SBD,M
Boys,67.13,4,Zach Reid,Dripping Springs,64.86,154.22,111.13,165.56,430.91,Single-ply,SBD,M
Boys,67.13,5,Trey Elkins,Austin Lake Travis,66.68,151.95,88.45,161.03,401.43,Single-ply,SBD,M
Boys,67.13,6,Julian Mata,Kyle Lehman,64.86,124.74,88.45,142.88,356.07,Single-ply,SBD,M
Boys,67.13,7,Dylan Kurz,Cameron Yoe,61.96,131.54,65.77,140.61,337.93,Single-ply,SBD,M
Boys,67.13,8,Jordan Owens,San Marcos,65.23,124.74,70.31,138.35,333.39,Single-ply,SBD,M
Boys,74.84,9,Ronnie Salter,Georgetown East View,67.36,117.93,63.5,136.08,317.51,Single-ply,SBD,M
Boys,67.13,10,Alex Aguillon,Cameron Yoe,62.78,117.93,54.43,142.88,315.25,Single-ply,SBD,M
Boys,67.13,11,Jacob Arrieta,Georgetown East View,63.87,108.86,72.57,124.74,306.17,Single-ply,SBD,M
Boys,67.13,12,Derrick Jackson,Georgetown East View,63.68,108.86,72.57,111.13,292.57,Single-ply,SBD,M
Boys,67.13,DQ,Kris Glynn,Waco University,64.32,,,,,Single-ply,SBD,M
Boys,67.13,DQ,Peyton Tuggle,Bastrop Cedar Creek,64.86,,,,,Single-ply,SBD,M
Boys,74.84,1,Daniel Hernandez,Taylor,74.66,235.87,115.67,229.06,580.6,Single-ply,SBD,M
Boys,74.84,2,Michael Hernandez,Pflugerville,74.39,133.81,88.45,165.56,387.82,Single-ply,SBD,M
Boys,74.84,3,D'Morea Horton,Pflugerville,68.58,151.95,88.45,142.88,383.29,Single-ply,SBD,M
Boys,74.84,4,Isiah Johnson,Dripping Springs,69.85,136.08,88.45,149.69,374.21,Single-ply,SBD,M
Boys,74.84,5,Titus Lewis,Cameron Yoe,72.57,117.93,83.91,165.56,367.41,Single-ply,SBD,M
Boys,74.84,6,Eric Grasso,Georgetown,74.12,120.2,74.84,142.88,337.93,Single-ply,SBD,M
Boys,74.84,7,Josh Orr,Elgin,73.48,115.67,68.04,142.88,326.59,Single-ply,SBD,M
Boys,74.84,8,Landon Anderson,Cameron Yoe,69.4,86.18,77.11,136.08,299.37,Single-ply,SBD,M
Boys,74.84,DQ,Erick Anderson,Georgetown,69.85,142.88,83.91,124.74,,Single-ply,SBD,M
Boys,74.84,DQ,Drew Newman,Georgetown,74.03,102.06,90.72,131.54,,Single-ply,SBD,M
Boys,82.1,1,Everado Araujo,Taylor,80.65,247.21,149.69,238.14,635.03,Single-ply,SBD,M
Boys,89.81,2,Fabien Perez,Elgin,82.28,231.33,131.54,204.12,566.99,Single-ply,SBD,M
Boys,82.1,3,Ty Hill,Georgetown,80.01,204.12,113.4,217.72,535.24,Single-ply,SBD,M
Boys,82.1,4,Tiki Mondragon,Kyle Lehman,81.37,192.78,138.35,204.12,535.24,Single-ply,SBD,M
Boys,82.1,5,Ryan Buehler,Dripping Springs,81.83,195.04,140.61,185.97,521.63,Single-ply,SBD,M
Boys,82.1,6,Cody Patterson,Bastrop Cedar Creek,77.02,174.63,115.67,199.58,489.88,Single-ply,SBD,M
Boys,82.1,7,Victor Martinez,San Marcos,79.83,165.56,115.67,183.7,464.93,Single-ply,SBD,M
Boys,82.1,8,Joseph Wilburn,San Marcos,77.47,170.1,90.72,190.51,451.32,Single-ply,SBD,M
Boys,82.1,9,Isaiah Manzanares,San Marcos,79.74,158.76,92.99,188.24,439.98,Single-ply,SBD,M
Boys,82.1,10,Matt May,Georgetown,78.02,147.42,97.52,158.76,403.7,Single-ply,SBD,M
Boys,82.1,11,Matthew Hemphill,Dripping Springs,77.11,165.56,115.67,113.4,394.63,Single-ply,SBD,M
Boys,82.1,12,James Garcia,Bastrop Cedar Creek,80.01,129.27,81.65,170.1,381.02,Single-ply,SBD,M
Boys,82.1,13,Noah Ricks,Dripping Springs,76.57,133.81,86.18,142.88,362.87,Single-ply,SBD,M
Boys,82.1,14,Nick Rangel,Cameron Yoe,75.66,127.01,72.57,145.15,344.73,Single-ply,SBD,M
Boys,82.1,15,Drew Barfield,Georgetown,77.56,120.2,86.18,136.08,342.46,Single-ply,SBD,M
Boys,89.81,1,George Neef,Dripping Springs,88.99,226.8,120.2,229.06,576.06,Single-ply,SBD,M
Boys,89.81,2,Chris Hatch,Taylor,85.28,215.46,151.95,206.38,573.79,Single-ply,SBD,M
Boys,89.81,3,Isaac Villanueva,Taylor,85.73,188.24,102.06,190.51,480.81,Single-ply,SBD,M
Boys,89.81,4,RJ Petaia,Pflugerville,86,161.03,115.67,183.7,460.4,Single-ply,SBD,M
Boys,89.81,5,Will May,Georgetown,82.83,156.49,111.13,190.51,458.13,Single-ply,SBD,M
Boys,89.81,6,Rene Velasquez,San Marcos,82.64,165.56,111.13,167.83,444.52,Single-ply,SBD,M
Boys,89.81,7,Jairon Horn,Pflugerville,84.46,170.1,124.74,142.88,437.72,Single-ply,SBD,M
Boys,89.81,8,Aaron Corona,Georgetown East View,83.91,149.69,104.33,172.37,426.38,Single-ply,SBD,M
Boys,89.81,DQ,Spencer Majors,Waco University,87.09,,,,,Single-ply,SBD,M
Boys,99.79,1,Joseph Rodriguez,Bastrop Cedar Creek,92.8,229.06,136.08,238.14,603.28,Single-ply,SBD,M
Boys,99.79,2,Abel Longoria,Kyle Lehman,97.07,204.12,120.2,185.97,510.29,Single-ply,SBD,M
Boys,99.79,3,James Rodriguez,Pflugerville,98.88,188.24,120.2,181.44,489.88,Single-ply,SBD,M
Boys,99.79,4,Matthew Holloway,Austin Lake Travis,92.71,174.63,120.2,183.7,478.54,Single-ply,SBD,M
Boys,99.79,5,Damion Cavazos,Georgetown,99.43,197.31,115.67,158.76,471.74,Single-ply,SBD,M
Boys,99.79,6,Jorge Riojas,San Marcos,97.7,156.49,99.79,172.37,428.64,Single-ply,SBD,M
Boys,99.79,7,Eric Munoz,Georgetown East View,91.35,113.4,90.72,154.22,358.34,Single-ply,SBD,M
Boys,109.77,8,Carl Furgeson,Kyle Lehman,99.97,104.33,106.59,145.15,356.07,Single-ply,SBD,M
Boys,99.79,DQ,David Mata,Georgetown,94.17,161.03,90.72,165.56,,Single-ply,SBD,M
Boys,109.77,1,Paul Dominguez,Taylor,109.41,281.23,185.97,210.92,678.12,Single-ply,SBD,M
Boys,124.74,2,Paul Crawford,Georgetown East View,109.86,233.6,154.22,179.17,566.99,Single-ply,SBD,M
Boys,109.77,3,John Paul Arias,Bastrop Cedar Creek,108.77,195.04,131.54,217.72,544.31,Single-ply,SBD,M
Boys,109.77,4,Hunter Creasey,Georgetown,102.06,199.58,111.13,215.46,526.17,Single-ply,SBD,M
Boys,109.77,5,Josh Gordon,Elgin,108.5,174.63,127.01,213.19,514.83,Single-ply,SBD,M
Boys,109.77,6,Seth Crumley,Dripping Springs,106.59,188.24,127.01,181.44,496.68,Single-ply,SBD,M
Boys,109.77,7,Cole Northcutt,Georgetown,101.6,192.78,90.72,170.1,453.59,Single-ply,SBD,M
Boys,109.77,8,John Navajas,Elgin,102.06,133.81,83.91,174.63,392.36,Single-ply,SBD,M
Boys,124.74,1,Aaron Johnson #15,Georgetown,116.94,249.48,163.29,210.92,623.69,Single-ply,SBD,M
Boys,124.74,2,Tomas Salomon,Cameron Yoe,113.49,244.94,131.54,217.72,594.21,Single-ply,SBD,M
Boys,124.74,3,Brian Prickett,Kyle Lehman,119.48,197.31,122.47,197.31,517.1,Single-ply,SBD,M
Boys,124.74,4,Pablo Rodriguez,Cameron Yoe,110.77,195.04,113.4,192.78,501.22,Single-ply,SBD,M
Boys,124.74,5,Matthew Armendariz,Austin Lake Travis,121.02,183.7,111.13,201.85,496.68,Single-ply,SBD,M
Boys,124.74,6,Miguel Jamie,Dripping Springs,115.39,204.12,108.86,181.44,494.42,Single-ply,SBD,M
Boys,124.74,7,Ethan Strong,Georgetown,120.11,183.7,95.25,183.7,462.66,Single-ply,SBD,M
Boys,124.74,8,Chase Travis,Georgetown,117.12,172.37,104.33,170.1,446.79,Single-ply,SBD,M
Boys,124.74,9,Carson Ikels,Dripping Springs,111.58,124.74,102.06,170.1,396.89,Single-ply,SBD,M
Boys,124.74,10,Eliel Salazar,Elgin,120.75,138.35,74.84,170.1,383.29,Single-ply,SBD,M
Boys,124.74,11,Brian McDonald,Cameron Yoe,124.47,138.35,79.38,127.01,344.73,Single-ply,SBD,M
Boys,124.74,DQ,Adrian Lewis,Cameron Yoe,112.58,172.37,102.06,,,Single-ply,SBD,M
Boys,124.74,DQ,Josh Ficklin,Elgin,118.84,226.8,,,,Single-ply,SBD,M
Boys,124.74,DQ,Cody Ullstead,Georgetown,116.94,231.33,140.61,,,Single-ply,SBD,M
Boys,124.74+,1,Kade Clapper,Georgetown,130.27,208.65,127.01,192.78,528.44,Single-ply,SBD,M
Boys,124.74+,2,Jacob Graner,Dripping Springs,142.97,176.9,117.93,158.76,453.59,Single-ply,SBD,M
Boys,124.74+,3,Lee Hall,Bastrop Cedar Creek,150.14,174.63,97.52,149.69,421.84,Single-ply,SBD,M
Boys,124.74+,4,Nick Dela Rosa,San Marcos,138.89,145.15,79.38,167.83,392.36,Single-ply,SBD,M
Boys,124.74+,5,Carlos Morales,Kyle Lehman,137.53,124.74,92.99,172.37,390.09,Single-ply,SBD,M
