Name,WeightClassKg,JapaneseName,Team,BirthYear,BodyweightKg,Squat1Kg,Squat2Kg,Squat3Kg,Bench1Kg,Bench2Kg,Bench3Kg,Deadlift1Kg,Deadlift2Kg,Deadlift3Kg,Best3SquatKg,Best3BenchKg,Best3DeadliftKg,TotalKg,Place,Division,Sex,Event,Equipment,BirthDate
Yukako Fukushima,47,福島 友佳子,兵庫県 パワーハウス赤穂,1970,46.35,175,182.5,190,125,130,132.5,155,165,-173.5,190,132.5,165,487.5,1,Open,F,SBD,Single-ply,
Kotomi Hayakawa,47,早川 琴果,神奈川県 ESQUATIR,1995,46.95,-160,160,170,105,110,-115,-170,-170,-170,170,110,,,DQ,Open,F,SBD,Single-ply,
Aoi Sawayama,52,澤山 あおい,茨城県 パワーハウスつくば,1998,48.8,152.5,-162.5,171.5,65,75,80,135,-158,,171.5,80,135,386.5,1,Open,F,SBD,Single-ply,
Akane Isoda,52,磯田 あかね,神奈川県 スーパーパワーアサマトレーニングクラブ,1970,51.7,105,115,-120,80,-85,85,115,125,-130,115,85,125,325,2,Open,F,SBD,Single-ply,
,52,赤川 智子,神奈川県 YPTG,1984,51.5,135,145,150,-126,-126,-126,145,155,-160,150,,155,,DQ,Open,F,SBD,Single-ply,
,57,加藤 幸枝,東京都 TXP,1974,56.1,155,-162.5,-165,82.5,87.5,90,155,165,172.5,155,90,172.5,417.5,1,Open,F,SBD,Single-ply,
,57,渕上 宏恵,神奈川県 YPTG,1967,56.55,-150,155,160,-95,95,-97.5,125,-135,-135,160,95,125,380,2,Open,F,SBD,Single-ply,
Mayumi Kitamura,63,北村 真由美,神奈川県 スーパーパワーアサマトレーニングクラブ,1967,62.8,185,200,-208.5,-155,-155,155,180,190,-195,200,155,190,545,1,Open,F,SBD,Single-ply,
,63,鈴木 恭子,神奈川県 スーパーパワーアサマトレーニングクラブ,1977,62.8,132.5,142.5,155,77.5,82.5,85,135,147.5,-160,155,85,147.5,387.5,2,Open,F,SBD,Single-ply,
,69,林 和美,神奈川県 YPTG,1963,63.8,115,130,-137.5,85,-90,-90,105,120,130,130,85,130,345,1,Open,F,SBD,Single-ply,
Ayaka Tsutsumi,69,堤 彩夏,京都府 EXSTAGE,1995,66.85,-195,-195,-195,90,95,-100,150,160,-170,,95,160,,DQ,Open,F,SBD,Single-ply,
Rie Teruya,76,照屋 利恵,沖縄県 個人,1975,69.5,-160,-160,160,130,140,-145,145,155,-157.5,160,140,155,455,1,Open,F,SBD,Single-ply,
Aoi Sawayama,52,澤山 あおい,茨城県 パワーハウスつくば,1998,48.8,152.5,-162.5,171.5,65,75,80,135,-158,,171.5,80,135,386.5,1,Juniors,F,SBD,Single-ply,
,47,石川 知奈,愛知県 Cure-Care キュアケア,2006,44.55,80,90,100,35,-40,-40,80,90,-92.5,100,35,90,225,1,Sub-Juniors,F,SBD,Single-ply,
,63,鈴木 恭子,神奈川県 スーパーパワーアサマトレーニングクラブ,1977,62.8,132.5,142.5,155,77.5,82.5,85,135,147.5,-160,155,85,147.5,387.5,1,Masters 1,F,SBD,Single-ply,
Mika Teramura,52,寺村 美香,北海道 アイアンジム,1962,51.9,120,125,130,-90,90,-98,120,130,-135,130,90,130,350,1,Masters 2,F,SBD,Single-ply,
Akane Isoda,52,磯田 あかね,神奈川県 スーパーパワーアサマトレーニングクラブ,1970,51.7,105,115,-120,80,-85,85,115,125,-130,115,85,125,325,2,Masters 2,F,SBD,Single-ply,
,52,田中 彰子,兵庫県 パワーハウス赤穂,1964,51.5,107.5,117.5,127.5,62.5,67.5,72.5,110,122.5,-130,127.5,72.5,122.5,322.5,3,Masters 2,F,SBD,Single-ply,
,57,渕上 宏恵,神奈川県 YPTG,1967,56.55,-150,155,160,-95,95,-97.5,125,-135,-135,160,95,125,380,1,Masters 2,F,SBD,Single-ply,
,57,長谷川 真紀,東京都 パワーハウス,1965,55.3,120,125,-132.5,-80,-80,-80,110,115,117.5,125,,117.5,,DQ,Masters 2,F,SBD,Single-ply,
Mayumi Kitamura,63,北村 真由美,神奈川県 スーパーパワーアサマトレーニングクラブ,1967,62.8,185,200,-208.5,-155,-155,155,180,190,-195,200,155,190,545,1,Masters 2,F,SBD,Single-ply,
,69,林 和美,神奈川県 YPTG,1963,63.8,115,130,-137.5,85,-90,-90,105,120,130,130,85,130,345,1,Masters 2,F,SBD,Single-ply,
Chieko Kudo,69,工藤 智恵子,兵庫県 マッスルプロダクション,1967,65.7,125,132.5,-137.5,-90,-92.5,92.5,105,110,120,132.5,92.5,120,345,2,Masters 2,F,SBD,Single-ply,
Yoshie Takizawa,47,滝沢 嘉恵,神奈川県 スーパーパワーアサマトレーニングクラブ,1957,45.35,102.5,112.5,122.5,65,70,72.5,102.5,112.5,125.5,122.5,72.5,125.5,320.5,1,Masters 3,F,SBD,Single-ply,
,57,大森 聖子,神奈川県 小田原アリーナ,1951,56.4,125,135,-140,57.5,62.5,65.5,110,120,-123,135,65.5,120,320.5,1,Masters 4,F,SBD,Single-ply,
Motohito Kubo,59,久保 元人,大阪府 K's GYM,1989,58.25,210,-220,220,-132.5,132.5,135,230,237.5,-260,220,135,237.5,592.5,1,Open,M,SBD,Single-ply,
,59,飯村 貴弘,茨城県 パワーハウスつくば,1990,58.75,210,225,-230,140,145,147.5,205,215,-227.5,225,147.5,215,587.5,2,Open,M,SBD,Single-ply,
Tadashi Shiraishi,59,白石 匡,大阪府 K's GYM,1980,58.4,190,-205,205,-125,125,135,200,220,230,205,135,230,570,3,Open,M,SBD,Single-ply,
Yusuke Satake,66,佐竹 優典,東京都 TXP,1996,65.55,285,300,-311,-200,-200,200,245,262.5,270,300,200,270,770,1,Open,M,SBD,Single-ply,
,66,佐藤 義宏,神奈川県 K'sGYM横浜,1982,65.5,-260,260,-270,-190,190,-205,210,222.5,-230,260,190,222.5,672.5,2,Open,M,SBD,Single-ply,
,66,渡邉 将慶,東京都 青山学院大学,2001,65.55,-245,245,-260,150,-180,-180,175,200,-212.5,245,150,200,595,3,Open,M,SBD,Single-ply,
,66,瑞慶覧 勇輝,沖縄県 POWER SPORTS,1988,,,,,,,,,,,,,,,NS,Open,M,SBD,Single-ply,
Norihiro Otani,74,大谷 憲弘,神奈川県 ESQUATIR,1980,73.6,320,-330,-330,-250,-250,250,240,255,-265,320,250,255,825,1,Open,M,SBD,Single-ply,
Go Suzuki,74,鈴木 豪,東京都 TXP,1994,73.3,260,-270,270,217.5,,,260,-280,280,270,217.5,280,767.5,2,Open,M,SBD,Single-ply,
,74,瀬尾 雅也,茨城県 パワーハウスつくば,1996,72.85,242.5,252.5,-265,145,-150,-150,222.5,232.5,-237.5,252.5,145,232.5,630,3,Open,M,SBD,Single-ply,
,74,宮澤 賢,東京都 パワーハウス,1977,73.75,250,-260,-260,125,130,132.5,-225,225,237.5,250,132.5,237.5,620,4,Open,M,SBD,Single-ply,
,74,大石 圭太,神奈川県 スーパーパワーアサマトレーニングクラブ,1981,74,-227.5,227.5,240,140,-150,150,225,-240,,240,150,225,615,5,Open,M,SBD,Single-ply,
,74,草間 伸司,神奈川県 ESQUATIR,1987,73.9,180,190,-195,160,167.5,-175,200,210,-230,190,167.5,210,567.5,6,Open,M,SBD,Single-ply,
,83,山本 航平,神奈川県 ESQUATIR,1991,82.8,-315,315,,230,250,-260,255,275,285,315,250,285,850,1,Open,M,SBD,Single-ply,
Nobuyuki Hamada,83,濱田 展行,大阪府 K's GYM,1969,78,307.5,-328,328,180,-190,190,250,260,270,328,190,270,788,2,Open,M,SBD,Single-ply,
,83,八須 拳太郎,東京都 TXP,1990,81.2,270,285,-300,170,180,185,240,-257.5,257.5,285,185,257.5,727.5,3,Open,M,SBD,Single-ply,
,83,鈴木 真人,東京都 ノーリミッツ,1984,82.85,230,242.5,250,205,210,215,235,247.5,255,250,215,255,720,4,Open,M,SBD,Single-ply,
,83,高島 祐也,茨城県 パワーハウスつくば,1998,82.1,235,250,262.5,170,-177.5,180,225,240,-265,262.5,180,240,682.5,5,Open,M,SBD,Single-ply,
,83,嶋田 友則,神奈川県 ESQUATIR,1979,82.05,-240,240,245,170,-177.5,-177.5,220,235,-245,245,170,235,650,6,Open,M,SBD,Single-ply,
,83,小早川 渉,東京都 TXP,1975,82.55,312.5,320,,,,,,,,320,,,,DQ,Open,M,SBD,Single-ply,
,93,鈴木 喜稀,神奈川県 小田原アリーナ,1993,92.6,-340,340,,-245,245,-260,280,300,310,340,245,310,895,1,Open,M,SBD,Single-ply,
,93,福島 和文,兵庫県 パワーハウス赤穂,1966,88.8,230,250,260,170,-175,175,220,230,-235,260,175,230,665,2,Open,M,SBD,Single-ply,
,105,阿久津 貴史,東京都 TXP,1982,100.55,320,340,355,-217.5,217.5,225,260,275,290,355,225,290,870,1,Open,M,SBD,Single-ply,
,105,久保 匡平,京都府 EXSTAGE,1987,101.5,360,-380,-380,-230,230,-237.5,225,245,-267.5,360,230,245,835,2,Open,M,SBD,Single-ply,
,105,林 直明,茨城県 パワーハウスつくば,1991,101.65,260,-275,275,170,180,-190,255,285,-305.5,275,180,285,740,3,Open,M,SBD,Single-ply,
,105,山田 哲也,千葉県 パワーリフティングジム ZEAL,1989,,,,,,,,,,,,,,,NS,Open,M,SBD,Single-ply,
,120,加瀬 智,神奈川県 k'sGYM横浜,1991,114.65,-305,305,312.5,-270,270,-275,245,255,-267.5,312.5,270,255,837.5,1,Open,M,SBD,Single-ply,
,120,柴田 道郎,石川県 TRI,1978,114.9,300,315,325,-270,-270,270,240,-255,-255,325,270,240,835,2,Open,M,SBD,Single-ply,
,120,間嶋 秀伍,千葉県 パワーリフティングジム ZEAL,1991,118.2,325,-340,-340,195,205,217.5,250,267.5,-297.5,325,217.5,267.5,810,3,Open,M,SBD,Single-ply,
,74,亀谷 駿也,埼玉県 草加高校,2004,71.2,185,195,-200,117.5,125,130,185,195,-205,195,130,195,520,1,Sub-Juniors,M,SBD,Single-ply,
,66,渡邉 将慶,東京都 青山学院大学,2001,65.55,-245,245,-260,150,-180,-180,175,200,-212.5,245,150,200,595,1,Juniors,M,SBD,Single-ply,
Yusei Goto,83,後藤 優誠,広島県 瀬野川トレーニングクラブ,2002,82.6,240,260,270,170,185,-200,225,240,252.5,270,185,252.5,707.5,1,Juniors,M,SBD,Single-ply,
,83,高島 祐也,茨城県 パワーハウスつくば,1998,82.1,235,250,262.5,170,-177.5,180,225,240,-265,262.5,180,240,682.5,2,Juniors,M,SBD,Single-ply,
,93,金子 将也,東京都 青山学院大学,2000,92.35,250,265,275,140,150,170,210,230,255,275,170,255,700,1,Juniors,M,SBD,Single-ply,
,105,藏下 隼人,東京都 東京大学,1999,,,,,,,,,,,,,,,NS,Juniors,M,SBD,Single-ply,
Tadashi Shiraishi,59,白石 匡,大阪府 K's GYM,1980,58.4,190,-205,205,-125,125,135,200,220,230,205,135,230,570,1,Masters 1,M,SBD,Single-ply,
,66,上野 辰彦,滋賀県 個人,1976,65.15,225,235,-247,-155,155,165,200,215,230,235,165,230,630,1,Masters 1,M,SBD,Single-ply,
,66,石川 拓也,東京都 パワーハウス,1979,65.4,175,182.5,,-177.5,-177.5,-183,,,,182.5,,,,DQ,Masters 1,M,SBD,Single-ply,
Norihiro Otani,74,大谷 憲弘,神奈川県 ESQUATIR,1980,73.6,320,-330,-330,-250,-250,250,240,255,-265,320,250,255,825,1,Masters 1,M,SBD,Single-ply,
,74,宮澤 賢次,東京都 パワーハウス,1977,73.75,250,-260,-260,125,130,132.5,-225,225,237.5,250,132.5,237.5,620,2,Masters 1,M,SBD,Single-ply,
,74,大石 圭太朗,神奈川県 スーパーパワーアサマトレーニングクラブ,1981,74,-227.5,227.5,240,140,-150,150,225,-240,,240,150,225,615,3,Masters 1,M,SBD,Single-ply,
,83,嶋田 友則,神奈川県 ESQUATIR,1979,82.05,-240,240,245,170,-177.5,-177.5,220,235,-245,245,170,235,650,1,Masters 1,M,SBD,Single-ply,
,83,高橋 秀輔,東京都 パワーハウス,1977,82.2,185,-195,195,170,-175,-175,210,-230,-230,195,170,210,575,2,Masters 1,M,SBD,Single-ply,
,93,塩田 宗廣,兵庫県 グッドコンディション,1977,91.6,255,-265,-275,145,152.5,157.5,225,240,252.5,255,157.5,252.5,665,1,Masters 1,M,SBD,Single-ply,
,93,堀内 健司,東京都 パワーハウス,1976,91.55,200,220,-240,170,180,-190,200,220,-235,220,180,220,620,2,Masters 1,M,SBD,Single-ply,
,59,千原 竜一,東京都 ノーリミッツ,1968,58.8,-140,140,-145,-107.5,107.5,-110,140,-162.5,-162.5,140,107.5,140,387.5,1,Masters 2,M,SBD,Single-ply,
,66,藤川 慶二,大阪府 バリバリジム,1971,65.6,140,-160,160,90,110,-117.5,150,170,-185,160,110,170,440,1,Masters 2,M,SBD,Single-ply,
Nobuyuki Hamada,83,濱田 展行,大阪府 K's GYM,1969,78,307.5,-328,328,180,-190,190,250,260,270,328,190,270,788,1,Masters 2,M,SBD,Single-ply,
,93,小川 光寿,富山県 西部組,1971,92.2,210,230,-250,160,175,185,200,215,-220,230,185,215,630,1,Masters 2,M,SBD,Single-ply,
,66,高橋 雅之,神奈川県 スーパーパワーアサマトレーニングクラブ,1960,64.9,210,-218,218,-145,-145,145,175,182.5,-185,218,145,182.5,545.5,1,Masters 3,M,SBD,Single-ply,
,66,丹羽 弘典,香川県 高松トレーニングクラブ,1961,65.45,180,190,200,90,100,105,200,210,218,200,105,218,523,2,Masters 3,M,SBD,Single-ply,
,74,小二田 弘,栃木県 個人,1957,67.8,185,-195,-195,110,112.5,115,205,220.5,-230,185,115,220.5,520.5,1,Masters 3,M,SBD,Single-ply,
,74,佐藤 一夫,東京都 パワーハウス,1961,72.15,165,175,180,120,125,130,160,-170,170,180,130,170,480,2,Masters 3,M,SBD,Single-ply,
,74,谷口 晃一,岡山県 個人,1960,72.85,190,-200,-200,-150,-150,-150,,,,190,,,,DQ,Masters 3,M,SBD,Single-ply,
,83,伊藤 順三,兵庫県 個人,1954,79.6,160,-170,-170,-145,145,-150,180,190,-195,160,145,190,495,1,Masters 3,M,SBD,Single-ply,
,66,大澤 充,埼玉県 ビッグタートル深谷,1941,63.4,120,-130,-130,70,75,80,120,130,140,120,80,140,340,1,Masters 4,M,SBD,Single-ply,
,74,瀧田 悟,富山県 高岡TC,1947,72,-170,170,180,97.5,-100,-100,-160,160,170,180,97.5,170,447.5,1,Masters 4,M,SBD,Single-ply,
,74,藤本 章夫,兵庫県 フジモトジム,1949,73.6,140,150,,100,107.5,,160,170,175,150,107.5,175,432.5,2,Masters 4,M,SBD,Single-ply,
Toshio Kitano,83,北野 利雄,宮城県 仙台市体育館PC,1946,82.3,220,-235,235,80,90,,205,-227.5,-227.5,235,90,205,530,1,Masters 4,M,SBD,Single-ply,
