Division,WeightClassKg,Place,Name,Team,BodyweightKg,Best3SquatKg,Best3BenchKg,Best3DeadliftKg,TotalKg,Equipment,Event,Sex
Boys,51.71,1,Dylan Mikus,Magnolia West,51.71,122.47,77.11,138.35,337.93,Single-ply,SBD,M
Boys,51.71,2,Ivan Perez,Waller,51.53,106.59,81.65,147.42,335.66,Single-ply,SBD,M
Boys,51.71,3,Daniel Herrera,Navasota,51.71,108.86,79.38,127.01,315.25,Single-ply,SBD,M
Boys,51.71,4,Ross Cowart,Huntsville,51.07,92.99,52.16,124.74,269.89,Single-ply,SBD,M
Boys,51.71,5,Micha Mock,Navasota,46.08,115.67,58.97,86.18,260.82,Single-ply,SBD,M
Boys,55.79,1,David Hernandez,Hearne,54.43,124.74,83.91,158.76,367.41,Single-ply,SBD,M
Boys,55.79,2,AJ Ono,Conroe The Woodlands,55.43,127.01,86.18,149.69,362.87,Single-ply,SBD,M
Boys,55.79,3,Chris Sage,Bryan,53.98,124.74,68.04,131.54,324.32,Single-ply,SBD,M
Boys,55.79,4,Ryan Anthis,Waller,53.8,95.25,52.16,111.13,258.55,Single-ply,SBD,M
Boys,55.79,5,Martin Rocha,Conroe Woodlands College Park,54.16,99.79,54.43,99.79,254.01,Single-ply,SBD,M
Boys,55.79,6,Nick Provost,Conroe The Woodlands,52.25,92.99,47.63,106.59,247.21,Single-ply,SBD,M
Boys,67.13,1,Joseph Herrera #2,Navasota,59.96,172.37,86.18,156.49,415.04,Single-ply,SBD,M
Boys,59.87,2,Kenny Bounds,Montgomery,57.61,136.08,83.91,136.08,356.07,Single-ply,SBD,M
Boys,59.87,3,Colton Richie,Conroe Woodlands College Park,58.79,124.74,79.38,138.35,342.46,Single-ply,SBD,M
Boys,59.87,DQ,Corey Ford,Livingston,59.87,,,,,Single-ply,SBD,M
Boys,67.13,1,Grayson Brown,Conroe The Woodlands,66.13,229.06,127.01,197.31,553.38,Single-ply,SBD,M
Boys,67.13,2,Jacob Cadieux,Waller,65.68,188.24,113.4,197.31,498.95,Single-ply,SBD,M
Boys,67.13,3,Zach Hawkins,Conroe The Woodlands,66.5,142.88,124.74,165.56,433.18,Single-ply,SBD,M
Boys,67.13,4,Frank Williams,Navasota,63.68,136.08,92.99,158.76,387.82,Single-ply,SBD,M
Boys,67.13,5,Tj Caldwell,Huntsville,65.68,142.88,88.45,156.49,387.82,Single-ply,SBD,M
Boys,67.13,6,Nigel Moyer,Conroe The Woodlands,62.96,147.42,92.99,136.08,376.48,Single-ply,SBD,M
Boys,67.13,7,Victor Davaloz,Hearne,67.13,149.69,63.5,161.03,374.21,Single-ply,SBD,M
Boys,67.13,8,Corey Colon,Conroe Woodlands College Park,61.69,136.08,72.57,151.95,360.61,Single-ply,SBD,M
Boys,74.84,9,Caelin Lukie,Bryan,67.31,120.2,79.38,154.22,353.8,Single-ply,SBD,M
Boys,67.13,10,Bobby Baker,Magnolia,66.77,129.27,81.65,140.61,351.53,Single-ply,SBD,M
Boys,67.13,11,Arthur Pryor,Hearne,65.41,138.35,58.97,147.42,344.73,Single-ply,SBD,M
Boys,67.13,12,Gage Blue,Conroe The Woodlands,66.22,115.67,77.11,142.88,335.66,Single-ply,SBD,M
Boys,67.13,13,Charlie Reyes,Tomball,64.59,99.79,70.31,149.69,319.78,Single-ply,SBD,M
Boys,67.13,14,Bryson Merchant,Huntsville,67.13,108.86,72.57,108.86,290.3,Single-ply,SBD,M
Boys,67.13,15,Tyler Summers,Hearne,65.23,102.06,63.5,120.2,285.76,Single-ply,SBD,M
Boys,67.13,16,Hunter Cork,Magnolia,61.6,90.72,47.63,108.86,247.21,Single-ply,SBD,M
Boys,67.13,DQ,Cameron Gray,Navasota,63.68,,,,,Single-ply,SBD,M
Boys,67.13,DQ,Alex Tovar,Hearne,67.13,,,,,Single-ply,SBD,M
Boys,67.13,DQ,Javon Jefferson,Bryan,67.13,,,,,Single-ply,SBD,M
Boys,74.84,1,Woogie Powell,Navasota,71.94,226.8,140.61,208.65,576.06,Single-ply,SBD,M
Boys,74.84,2,Elvin Martinez,Huntsville,74.3,190.51,99.79,217.72,508.02,Single-ply,SBD,M
Boys,82.1,3,Antone Wallace,Bryan,75.02,188.24,115.67,185.97,489.88,Single-ply,SBD,M
Boys,74.84,4,Caleb Hall,Montgomery,68.27,190.51,111.13,181.44,483.08,Single-ply,SBD,M
Boys,74.84,5,Noah Fletcher,Conroe Woodlands College Park,73.84,183.7,111.13,183.7,478.54,Single-ply,SBD,M
Boys,74.84,6,Erwin Castellanos,Magnolia West,72.48,176.9,113.4,181.44,471.74,Single-ply,SBD,M
Boys,74.84,7,Eric Pereuss,Montgomery,69.17,167.83,106.59,192.78,467.2,Single-ply,SBD,M
Boys,74.84,8,Pedro Ott,Conroe Woodlands College Park,74.12,174.63,99.79,190.51,464.93,Single-ply,SBD,M
Boys,74.84,9,Dylan Jenkins,Montgomery,70.99,172.37,95.25,183.7,451.32,Single-ply,SBD,M
Boys,74.84,10,Cameron McCleod,Montgomery,70.99,154.22,111.13,170.1,435.45,Single-ply,SBD,M
Boys,74.84,11,J W Shortle,Magnolia,70.94,158.76,97.52,149.69,405.97,Single-ply,SBD,M
Boys,74.84,12,Jaquita Thompson,Bryan,69.94,154.22,86.18,163.29,403.7,Single-ply,SBD,M
Boys,74.84,13,Deandre Reece,Huntsville,73.39,138.35,102.06,163.29,403.7,Single-ply,SBD,M
Boys,74.84,14,Caleb Broussard,Waller,68.31,140.61,88.45,161.03,390.09,Single-ply,SBD,M
Boys,74.84,15,Joan Catalan,Tomball,68.13,142.88,74.84,147.42,365.14,Single-ply,SBD,M
Boys,74.84,16,Garrett Jackson,Conroe,72.12,124.74,83.91,147.42,356.07,Single-ply,SBD,M
Boys,74.84,17,Dustin Thomas,Montgomery,70.76,124.74,70.31,136.08,331.12,Single-ply,SBD,M
Boys,74.84,18,Cedrion Golden,Hearne,69.85,115.67,77.11,136.08,328.85,Single-ply,SBD,M
Boys,74.84,19,Jordan Castro,Conroe The Woodlands,69.85,102.06,56.7,104.33,263.08,Single-ply,SBD,M
Boys,74.84,DQ,Alex Ramirez,Hearne,74.84,,,,,Single-ply,SBD,M
Boys,74.84,DQ,Benton Ash,Magnolia,74.84,,,,,Single-ply,SBD,M
Boys,74.84,DQ,Gavin Murr,Livingston,74.84,,,,,Single-ply,SBD,M
Boys,74.84,DQ,Aaron Thomas #4,Magnolia West,74.84,,,,,Single-ply,SBD,M
Boys,82.1,1,Josh Van-Sant,Waller,81.92,226.8,124.74,204.12,555.65,Single-ply,SBD,M
Boys,82.1,2,Darrian Dock,Conroe,77.56,208.65,122.47,190.51,521.63,Single-ply,SBD,M
Boys,82.1,3,Leonard Abke,Navasota,80.56,206.38,127.01,181.44,514.83,Single-ply,SBD,M
Boys,82.1,4,Jacob Gallatin,Montgomery,76.2,192.78,106.59,195.04,494.42,Single-ply,SBD,M
Boys,82.1,5,Chance Free,Livingston,79.29,204.12,92.99,197.31,494.42,Single-ply,SBD,M
Boys,82.1,6,Tony Tapia,Conroe Woodlands College Park,79.11,183.7,117.93,190.51,492.15,Single-ply,SBD,M
Boys,82.1,7,Nick Beazley,Montgomery,78.93,181.44,122.47,185.97,489.88,Single-ply,SBD,M
Boys,82.1,8,Kyle Brennan,Conroe The Woodlands,79.92,172.37,115.67,183.7,471.74,Single-ply,SBD,M
Boys,82.1,9,Chanse Glueck,Waller,78.93,161.03,90.72,204.12,455.86,Single-ply,SBD,M
Boys,89.81,10,Jacob Martin,Livingston,82.28,183.7,83.91,174.63,442.25,Single-ply,SBD,M
Boys,82.1,11,Walker Holverson,Tomball,78.11,142.88,92.99,188.24,424.11,Single-ply,SBD,M
Boys,82.1,12,Andrew Garcia,Waller,80.65,147.42,97.52,154.22,399.16,Single-ply,SBD,M
Boys,82.1,13,Hunter Kroesche,Magnolia,80.2,151.95,79.38,161.03,392.36,Single-ply,SBD,M
Boys,82.1,14,Connor Conkle,Montgomery,77.79,138.35,86.18,145.15,369.68,Single-ply,SBD,M
Boys,82.1,DQ,Corey Hightower,Huntsville,76.16,167.83,,,,Single-ply,SBD,M
Boys,82.1,DQ,Kris Smith,Huntsville,82.1,,,,,Single-ply,SBD,M
Boys,89.81,1,Austin Cude,Navasota,89.72,240.4,158.76,226.8,625.96,Single-ply,SBD,M
Boys,89.81,2,David Caddie,Livingston,86,233.6,124.74,249.48,607.81,Single-ply,SBD,M
Boys,89.81,3,Dillan Roberson,Conroe,85.64,226.8,124.74,188.24,539.77,Single-ply,SBD,M
Boys,89.81,4,Dustin Baranowski,Conroe The Woodlands,88.27,188.24,111.13,215.46,514.83,Single-ply,SBD,M
Boys,99.79,5,John Sweeten,Montgomery,89.99,195.04,115.67,204.12,514.83,Single-ply,SBD,M
Boys,89.81,6,Dave Harris,Navasota,86.55,213.19,111.13,181.44,505.76,Single-ply,SBD,M
Boys,99.79,7,Cj Johnson,Bryan,89.99,181.44,111.13,176.9,469.47,Single-ply,SBD,M
Boys,89.81,8,Ali Jumili,Conroe The Woodlands,86.73,167.83,111.13,181.44,460.4,Single-ply,SBD,M
Boys,89.81,9,Javier Solano,Conroe Woodlands College Park,85.73,165.56,115.67,174.63,455.86,Single-ply,SBD,M
Boys,89.81,10,Parker Coleman,Conroe The Woodlands,88.36,158.76,108.86,176.9,444.52,Single-ply,SBD,M
Boys,89.81,11,Noah Blomberg,Magnolia,86,172.37,92.99,174.63,439.98,Single-ply,SBD,M
Boys,89.81,12,Jake Juranek,Tomball,88.81,136.08,122.47,181.44,439.98,Single-ply,SBD,M
Boys,89.81,13,Matthew Spicer,Magnolia,84.19,151.95,102.06,170.1,424.11,Single-ply,SBD,M
Boys,89.81,14,Nathan Trotter,Tomball,86.82,136.08,97.52,167.83,401.43,Single-ply,SBD,M
Boys,89.81,15,Justin Krus,Waller,89.81,142.88,90.72,165.56,399.16,Single-ply,SBD,M
Boys,89.81,16,Cortland Brown,Conroe The Woodlands,85.91,147.42,92.99,156.49,396.89,Single-ply,SBD,M
Boys,89.81,17,Desmond Doakes,Tomball,89.81,145.15,74.84,176.9,396.89,Single-ply,SBD,M
Boys,89.81,18,Jay Palacios,Tomball,83.73,142.88,97.52,129.27,369.68,Single-ply,SBD,M
Boys,89.81,19,Jeff Golze,Conroe The Woodlands,88.81,138.35,81.65,149.69,369.68,Single-ply,SBD,M
Boys,89.81,20,Blaine Hoover,Huntsville,88.36,142.88,61.23,122.47,326.59,Single-ply,SBD,M
Boys,89.81,DQ,Grant Farley,Conroe The Woodlands,89.54,199.58,,,,Single-ply,SBD,M
Boys,99.79,1,Kyle Haynes #2,Livingston,98.43,251.74,124.74,231.33,607.81,Single-ply,SBD,M
Boys,99.79,2,Dustin Castleberry,Montgomery,99.61,240.4,156.49,210.92,607.81,Single-ply,SBD,M
Boys,99.79,3,Deveon Jefferson,Livingston,92.17,238.14,151.95,215.46,605.55,Single-ply,SBD,M
Boys,99.79,4,Marquez Byrd,Navasota,97.43,231.33,122.47,226.8,580.6,Single-ply,SBD,M
Boys,99.79,5,Rene Troche-Baez,Conroe The Woodlands,95.62,215.46,115.67,238.14,569.26,Single-ply,SBD,M
Boys,99.79,6,David Ramirez,Navasota,92.26,235.87,136.08,185.97,557.92,Single-ply,SBD,M
Boys,99.79,7,Zach Loane,Conroe The Woodlands,94.98,201.85,108.86,235.87,546.58,Single-ply,SBD,M
Boys,99.79,8,Uri Lujan,Conroe,96.07,226.8,113.4,204.12,544.31,Single-ply,SBD,M
Boys,99.79,9,Cole Wade,Magnolia West,91.63,215.46,122.47,192.78,530.7,Single-ply,SBD,M
Boys,99.79,10,Ty Evans #2,Montgomery,96.16,197.31,111.13,208.65,517.1,Single-ply,SBD,M
Boys,99.79,11,Luke Kretschmer,Magnolia West,98.43,201.85,115.67,183.7,501.22,Single-ply,SBD,M
Boys,99.79,12,Andrew Smith #13,Conroe The Woodlands,97.61,190.51,111.13,192.78,494.42,Single-ply,SBD,M
Boys,99.79,13,Bryce Wood,Conroe,99.43,181.44,117.93,188.24,487.61,Single-ply,SBD,M
Boys,99.79,14,Jose Maravillo,Magnolia,95.8,158.76,111.13,176.9,446.79,Single-ply,SBD,M
Boys,99.79,15,Zach Marcisz,Waller,92.71,167.83,83.91,183.7,435.45,Single-ply,SBD,M
Boys,99.79,16,Jeffrey Goebel,Magnolia,98.16,165.56,97.52,172.37,435.45,Single-ply,SBD,M
Boys,99.79,17,Logan Bonner,Montgomery,99.56,156.49,108.86,154.22,419.57,Single-ply,SBD,M
Boys,99.79,18,Christopher Clausen,Livingston,95.16,158.76,92.99,158.76,410.5,Single-ply,SBD,M
Boys,99.79,19,Dylan Woods,Hearne,96.98,154.22,81.65,147.42,383.29,Single-ply,SBD,M
Boys,99.79,20,Cale Garrison,Conroe The Woodlands,95.44,145.15,83.91,124.74,353.8,Single-ply,SBD,M
Boys,99.79,DQ,Canyon Price,Huntsville,94.44,158.76,,,,Single-ply,SBD,M
Boys,99.79,DQ,Brent Cowell,Magnolia West,99.79,,,,,Single-ply,SBD,M
Boys,109.77,1,Christian Contreras #1,Hearne,107.32,229.06,163.29,249.48,641.83,Single-ply,SBD,M
Boys,109.77,2,Rick Marshall,Huntsville,107.68,240.4,158.76,242.67,641.83,Single-ply,SBD,M
Boys,109.77,3,Dj Jefferson,Conroe,107.05,226.8,147.42,206.38,580.6,Single-ply,SBD,M
Boys,109.77,4,Cal Bauer,Navasota,107.14,208.65,145.15,213.19,566.99,Single-ply,SBD,M
Boys,109.77,5,Hector Garcia,Conroe Woodlands College Park,103.06,215.46,129.27,213.19,557.92,Single-ply,SBD,M
Boys,109.77,6,Austin Jordan,Waller,103.42,215.46,127.01,188.24,530.7,Single-ply,SBD,M
Boys,109.77,7,Yahir Vargas,Tomball,106.87,197.31,115.67,172.37,485.34,Single-ply,SBD,M
Boys,124.74,8,Brian Burkett,Montgomery,110,181.44,129.27,174.63,485.34,Single-ply,SBD,M
Boys,109.77,9,Cameron Pustka,Montgomery,104.14,185.97,102.06,167.83,455.86,Single-ply,SBD,M
Boys,109.77,10,Kallen Miller,Montgomery,101.38,165.56,99.79,183.7,449.06,Single-ply,SBD,M
Boys,109.77,11,Max Joiner,Conroe,106.5,172.37,113.4,158.76,444.52,Single-ply,SBD,M
Boys,109.77,DQ,Matt Sutherland,Bryan,103.69,,,,,Single-ply,SBD,M
Boys,124.74,DQ,Parker Blount,Huntsville,109.86,283.5,,,,Single-ply,SBD,M
Boys,109.77,DQ,Kee Kee Johnson,Bryan,109.77,,,,,Single-ply,SBD,M
Boys,109.77,DQ,Josh Pruett,Montgomery,102.06,,,,,Single-ply,SBD,M
Boys,124.74,1,Artie Reyes,Bryan,110.95,233.6,147.42,208.65,589.67,Single-ply,SBD,M
Boys,124.74,2,Jake Hollech,Magnolia West,118.3,226.8,149.69,201.85,578.33,Single-ply,SBD,M
Boys,124.74,3,Sam Grubbs #2,Conroe Woodlands College Park,113.94,231.33,138.35,204.12,573.79,Single-ply,SBD,M
Boys,124.74,4,Darius Lloyd,Conroe,122.92,233.6,113.4,190.51,537.51,Single-ply,SBD,M
Boys,124.74,5,Brendan Fox,Montgomery,123.83,226.8,129.27,174.63,530.7,Single-ply,SBD,M
Boys,124.74,6,Aaron Hopper,Conroe The Woodlands,115.39,199.58,124.74,195.04,519.36,Single-ply,SBD,M
Boys,124.74,7,Adrian Perez,Conroe,124.74,215.46,106.59,183.7,505.76,Single-ply,SBD,M
Boys,124.74,8,Stephen Nevarez,Magnolia West,112.13,199.58,117.93,176.9,494.42,Single-ply,SBD,M
Boys,124.74,9,Tyler Burford,Magnolia West,115.03,176.9,120.2,181.44,478.54,Single-ply,SBD,M
Boys,124.74,10,Tyler Lang #2,Navasota,121.02,181.44,102.06,181.44,464.93,Single-ply,SBD,M
Boys,124.74,11,Jose Barrios,Tomball,112.49,172.37,92.99,192.78,458.13,Single-ply,SBD,M
Boys,124.74,12,Justin Peek,Magnolia,120.84,174.63,111.13,158.76,444.52,Single-ply,SBD,M
Boys,124.74+,13,Patrick Craig,Bryan,124.83,136.08,99.79,145.15,381.02,Single-ply,SBD,M
Boys,124.74+,DQ,Ylijaah Hall,Bryan,124.83,131.54,,,,Single-ply,SBD,M
Boys,124.74,DQ,Cedric Knighton,Livingston,124.74,,,,,Single-ply,SBD,M
Boys,124.74,DQ,Stephen Smith,Livingston,124.74,,,,,Single-ply,SBD,M
Boys,124.74,DQ,Andrew Hale,Magnolia,124.74,,,,,Single-ply,SBD,M
Boys,124.74,DQ,Quentin Edmiston,Montgomery,114.76,,,,,Single-ply,SBD,M
Boys,124.74+,1,Corey Ross,Navasota,132,258.55,190.51,226.8,675.85,Single-ply,SBD,M
Boys,124.74+,2,Brandon Jones #5,Montgomery,138.8,281.23,147.42,226.8,655.44,Single-ply,SBD,M
Boys,124.74+,3,Onterial Carter,Livingston,155.13,183.7,136.08,256.28,576.06,Single-ply,SBD,M
Boys,124.74+,4,Nathaniel Grant,Conroe Woodlands College Park,147.69,226.8,122.47,215.46,564.72,Single-ply,SBD,M
Boys,124.74+,5,Jamie Beaton,Conroe,125.87,229.06,108.86,201.85,539.77,Single-ply,SBD,M
Boys,124.74+,6,Darius Carter,Conroe,141.97,204.12,127.01,204.12,535.24,Single-ply,SBD,M
Boys,124.74+,7,Matthew Heffernan,Tomball,148.32,210.92,120.2,167.83,498.95,Single-ply,SBD,M
Boys,124.74+,8,Chuck Warren,Tomball,130.45,151.95,115.67,208.65,476.27,Single-ply,SBD,M
Boys,124.74+,9,Ty Horrigan,Magnolia West,127.01,188.24,129.27,151.95,469.47,Single-ply,SBD,M
Boys,124.74+,10,Camilo Armendariz,Waller,149.69,142.88,63.5,149.69,356.07,Single-ply,SBD,M
