Place,Name,Sex,Event,Division,WeightClassKg,Equipment,BirthYear,State,BodyweightKg,Squat1Kg,Squat2Kg,Squat3Kg,Best3SquatKg,Bench1Kg,Bench2Kg,Bench3Kg,Best3BenchKg,Deadlift1Kg,Deadlift2Kg,Deadlift3Kg,Best3DeadliftKg,TotalKg
1,Caroline Valdez,F,B,FR-Jr,63,Raw,1996,CA,60,,,,,57.5,60,65,65,,,,,65
1,Kristina Kanemoto,F,SBD,F-O,63,Single-ply,1992,CA,59.8,127.5,-137.5,140,140,60,67.5,-70,67.5,125,132.5,140,140,347.5
1,Michelle Comande,F,SBD,FR-Jr,52,Raw,1995,CA,51.9,112.5,117.5,125,125,67.5,72.5,75,75,135,-145,145,145,345
1,Niezelle Ventura,F,SBD,FR-Jr,57,Raw,1996,CA,56.1,107.5,115,-125,115,55,60,62.5,62.5,117.5,127.5,-132.5,127.5,305
2,Emily Ye,F,SBD,FR-Jr,57,Raw,1997,CA,55.8,105,-110,-110,105,-37.5,40,-45,40,107.5,115,122.5,122.5,267.5
1,Martina Carrillo,F,SBD,FR-Jr,63,Raw,1994,CA,58,97.5,105,110,110,50,55,-60,55,107.5,115,120,120,285
DQ,Lorraine Luna,F,SBD,FR-Jr,63,Raw,1997,CA,59.7,82.5,95,102.5,102.5,-37.5,-45,-55,,97.5,105,115,115,
1,Amanda Giacobbe,F,SBD,FR-Jr,72,Raw,1996,CA,65.5,92.5,105,107.5,107.5,60,-67.5,67.5,67.5,110,125,130,130,305
1,Kris Leatherberry,F,SBD,FR-M1b,57,Raw,1970,CA,56.4,120,130,-137.5,130,62.5,-67.5,-67.5,62.5,130,137.5,142.5,142.5,335
1,Sara Jones #1,F,SBD,FR-M2a,84,Raw,1967,CA,74.9,122.5,127.5,-130,127.5,62.5,-67.5,67.5,67.5,-130,130,137.5,137.5,332.5
1,Michele Bach,F,SBD,FR-M3a,52,Raw,1954,CA,51.9,62.5,65,70,70,32.5,35,37.5,37.5,100,105,110,110,217.5
1,Lydia Ortega,F,SBD,FR-M3a,84,Raw,1958,CA,73.8,-45,45,52.5,52.5,35,37.5,-40,37.5,77.5,82.5,87.5,87.5,177.5
1,Wai Kee Leung,F,SBD,FR-O,57,Raw,1991,CA,54.5,90,-95,-95,90,60,-62.5,62.5,62.5,92.5,97.5,102.5,102.5,255
2,Dorena Hinh,F,SBD,FR-O,57,Raw,1993,CA,55.6,-50,50,55,55,27.5,-30,30,30,75,85,90,90,175
1,Shasta McMillen,F,SBD,FR-O,63,Raw,1993,CA,62.3,-82.5,87.5,92.5,92.5,45,47.5,52.5,52.5,90,95,100,100,245
1,Justine Delgadillo,F,SBD,FR-O,84,Raw,1988,CA,84,157.5,-170,-177.5,157.5,62.5,67.5,-70,67.5,157.5,165,-172.5,165,390
2,Susan Chambers,F,SBD,FR-O,84,Raw,1988,CA,83.2,140,145,150,150,82.5,87.5,-92.5,87.5,140,,,140,377.5
1,Spencer Leatherberry,F,SBD,FR-T1,47,Raw,2002,CA,46.5,60,67.5,72.5,72.5,37.5,40,42.5,42.5,75,80,85,85,200
1,Pomaikai Yamaguchi,F,SBD,FR-T3,63,Raw,1998,CA,62.2,67.5,75,80,80,-47.5,57.5,65,65,102.5,110,-115,110,255
2,Sophia Krafcik,F,SBD,FR-T3,63,Raw,1999,CA,61.7,80,85,-90,85,40,45,-52.5,45,87.5,95,-102.5,95,225
1,Regina Luong,F,SBD,FR-T3,72,Raw,1998,CA,70,97.5,105,107.5,107.5,45,50,55,55,125,137.5,147.5,147.5,310
2,Isabelle Johnson,F,SBD,FR-T3,72,Raw,1999,WA,65,102.5,112.5,-122.5,112.5,-52.5,57.5,60,60,105,117.5,-127.5,117.5,290
3,Lauren Min,F,SBD,FR-T3,72,Raw,1998,CA,64.5,95,107.5,112.5,112.5,35,37.5,40,40,110,115,120,120,272.5
1,Derrick Lien,M,SBD,MR-Jr,53,Raw,1996,CA,52,142.5,147.5,-150,147.5,85,90,95,95,-160,-160,160,160,402.5
1,Tommy Mo,M,SBD,MR-Jr,59,Raw,1995,CA,58,125,-137.5,137.5,137.5,92.5,100,107.5,107.5,180,200,-217.5,200,445
1,Louis Lee,M,SBD,MR-Jr,66,Raw,1997,CA,63.2,120,-137.5,137.5,137.5,85,92.5,-102.5,92.5,142.5,152.5,175,175,405
1,Mitch Avery,M,SBD,MR-Jr,74,Raw,1997,CA,73.6,170,177.5,187.5,187.5,105,107.5,-112.5,107.5,215,227.5,232.5,232.5,527.5
2,Peter Le,M,SBD,MR-Jr,74,Raw,1997,CA,70.5,162.5,172.5,180,180,100,107.5,112.5,112.5,182.5,200,-212.5,200,492.5
3,Daniel Ornelas-Silva,M,SBD,MR-Jr,74,Raw,1996,CA,72,147.5,157.5,170,170,87.5,97.5,105,105,147.5,165,185,185,460
4,Nicolas Almacen,M,SBD,MR-Jr,74,Raw,1996,CA,72.8,125,135,147.5,147.5,-82.5,90,-95,90,162.5,180,192.5,192.5,430
5,Michael Hyun,M,SBD,MR-Jr,74,Raw,1996,CA,73.9,130,140,145,145,-102.5,102.5,-112.5,102.5,160,175,182.5,182.5,430
1,Vincent Shih,M,SBD,MR-Jr,83,Raw,1996,CA,80.3,155,165,172.5,172.5,102.5,110,120,120,187.5,197.5,207.5,207.5,500
1,Zachary Pederson,M,SBD,MR-Jr,93,Raw,1994,MN,92.7,200,212.5,220,220,135,142.5,150,150,230,237.5,252.5,252.5,622.5
2,Cody Nguyen,M,SBD,MR-Jr,93,Raw,1997,CA,91.5,195,207.5,215,215,125,137.5,-142.5,137.5,245,-255,255,255,607.5
3,Apollo La Mig,M,SBD,MR-Jr,93,Raw,1997,CA,89.8,205,215,-225,215,130,137.5,142.5,142.5,220,230,232.5,232.5,590
4,Lanny Tran,M,SBD,MR-Jr,93,Raw,1996,CA,92.9,202.5,215,222.5,222.5,127.5,135,-137.5,135,205,220,232.5,232.5,590
5,Danny Han,M,SBD,MR-Jr,93,Raw,1997,CA,90.9,190,202.5,207.5,207.5,122.5,130,-137.5,130,200,212.5,220,220,557.5
6,Miguel Horta,M,SBD,MR-Jr,93,Raw,1994,CA,91,177.5,190,197.5,197.5,110,-120,125,125,197.5,210,220,220,542.5
1,Averil Royal,M,SBD,MR-Jr,105,Raw,1995,TX,100.4,245,260,-272.5,260,175,185,190,190,250,265,-277.5,265,715
2,Justin Bose,M,SBD,MR-Jr,105,Raw,1995,CA,102.5,205,217.5,-227.5,217.5,135,145,-152.5,145,227.5,242.5,-250,242.5,605
3,Mohammad Sharif,M,SBD,MR-Jr,105,Raw,1996,CA,102.6,192.5,205,210,210,-140,145,150,150,222.5,-237.5,-240,222.5,582.5
4,Kevin Sosa,M,SBD,MR-Jr,105,Raw,1994,CA,104,165,172.5,-180,172.5,125,130,-132.5,130,210,-215,-215,210,512.5
5,Ian Vincent Dobluis,M,SBD,MR-Jr,105,Raw,1997,CA,102.2,135,142.5,150,150,92.5,102.5,-112.5,102.5,180,190,200,200,452.5
1,Matthew Nares,M,SBD,MR-M1a,83,Raw,1974,CA,80.5,137.5,-157.5,157.5,157.5,102.5,-110,-110,102.5,172.5,185,192.5,192.5,452.5
1,John Destacamento,M,SBD,MR-M2a,66,Raw,1967,CA,65.3,90,97.5,,97.5,90,95,-102.5,95,160,172.5,-182.5,172.5,365
1,Edward Suriaga,M,SBD,MR-O,66,Raw,1993,CA,65.7,160,172.5,182.5,182.5,92.5,100,-105,100,207.5,217.5,-230,217.5,500
1,Marcus Wong,M,SBD,MR-O,83,Raw,1988,CA,81.2,180,187.5,-195,187.5,112.5,122.5,-127.5,122.5,210,230,237.5,237.5,547.5
2,Matthew Boland,M,SBD,MR-O,83,Raw,1985,CA,79.7,127.5,137.5,150,150,125,137.5,-142.5,137.5,165,182.5,192.5,192.5,480
1,Marcus Bishop,M,SBD,MR-O,93,Raw,1992,CA,91.7,197.5,202.5,212.5,212.5,112.5,117.5,122.5,122.5,232.5,240,250,250,585
2,Alex Raquinan,M,SBD,MR-O,93,Raw,1988,CA,92,182.5,185,190,190,132.5,137.5,140,140,190,200,215,215,545
3,Nicholas Barrios,M,SBD,MR-O,93,Raw,1992,CA,87.9,170,177.5,182.5,182.5,100,105,110,110,197.5,202.5,210,210,502.5
4,Steve Babcock,M,SBD,MR-O,93,Raw,1981,CA,89.6,157.5,165,-175,165,117.5,122.5,-127.5,122.5,182.5,192.5,200,200,487.5
1,Erik Blekeberg,M,SBD,MR-O,105,Raw,1985,CA,103.4,225,235,240,240,135,142.5,150,150,255,265,275,275,665
2,Ray Duenas,M,SBD,MR-O,105,Raw,1992,CA,101.2,180,192.5,-202.5,192.5,120,130,-140,130,240,260,275,275,597.5
DD,Joshua Earnest,M,SBD,MR-O,120,Raw,1981,CA,114.6,285,305,317.5,317.5,195,210,215,215,287.5,307.5,320,320,
1,Austin Hyland,M,SBD,MR-O,120,Raw,1993,CA,117.6,175,187.5,200,200,120,-130,130,130,187.5,205,212.5,212.5,542.5
1,Angelo Alfano,M,SBD,MR-T3,66,Raw,1998,CA,63.7,190,207.5,212.5,212.5,107.5,120,125,125,170,177.5,182.5,182.5,520
1,Shaun Weber,M,SBD,MR-T3,74,Raw,1999,CA,74,172.5,-182.5,-182.5,172.5,105,-110,-110,105,182.5,200,-220,200,477.5
2,Brendann Garcia,M,SBD,MR-T3,74,Raw,1998,CA,74,127.5,-137.5,137.5,137.5,85,-90,-90,85,147.5,157.5,167.5,167.5,390
1,Roy Zawadzki,M,SBD,MR-T3,83,Raw,1998,CA,81.7,170,180,190,190,120,-130,130,130,212.5,225,237.5,237.5,557.5
2,Jared Maranon,M,SBD,MR-T3,83,Raw,1998,CA,82.1,155,165,170,170,110,115,-125,115,195,205,210,210,495
3,Westley Ventura,M,SBD,MR-T3,83,Raw,1999,CA,82.1,157.5,167.5,177.5,177.5,87.5,95,97.5,97.5,142.5,165,182.5,182.5,457.5
1,Kane Quiroz,M,SBD,MR-T3,93,Raw,1999,CA,91,170,182.5,195,195,122.5,142.5,147.5,147.5,202.5,215,227.5,227.5,570
2,Vince Patrick Dobluis,M,SBD,MR-T3,93,Raw,1998,CA,92.2,180,187.5,197.5,197.5,112.5,120,125,125,202.5,212.5,222.5,222.5,545
3,Christian Troy De Guzman,M,SBD,MR-T3,93,Raw,1998,CA,86.2,147.5,157.5,167.5,167.5,102.5,112.5,115,115,182.5,-192.5,200,200,482.5
4,Justin Spitzer,M,SBD,MR-T3,93,Raw,1998,CA,83.4,175,-185,-185,175,85,,,85,185,195,205,205,465
5,Connor Kelligrew,M,SBD,MR-T3,93,Raw,1998,NC,91.7,167.5,-175,175,175,110,-115,115,115,125,147.5,155,155,445
1,Andrew Tang #3,M,SBD,MR-T3,120,Raw,1999,CA,117.4,212.5,222.5,235,235,105,110,117.5,117.5,275,290,-300,290,642.5
