Division,WeightClassKg,Place,Name,Team,BodyweightKg,Best3SquatKg,Best3BenchKg,Best3DeadliftKg,TotalKg,Equipment,Event,Sex
Boys,51.71,1,Viator Gomez,Mertzon Irion County,49.9,122.47,58.97,124.74,306.17,Single-ply,SBD,M
Boys,51.71,2,Adan Silvas,McCamey,51.62,104.33,56.7,120.2,281.23,Single-ply,SBD,M
Boys,55.79,3,Brandon Lee,San Angelo Lake View,51.94,102.06,49.9,108.86,260.82,Single-ply,SBD,M
Boys,51.71,4,Josh Garcia #1,San Angelo Central,50.44,81.65,43.09,95.25,219.99,Single-ply,SBD,M
Boys,51.71,5,Aaron Rivera,San Angelo Lake View,50.26,70.31,43.09,92.99,206.38,Single-ply,SBD,M
Boys,51.71,6,Jonathan Estes,San Angelo Grape Creek,50.26,58.97,38.56,102.06,199.58,Single-ply,SBD,M
Boys,51.71,DQ,Edward Hernandez,Eldorado,51.44,,,,,Single-ply,SBD,M
Boys,55.79,1,Gunnar McNeill,San Angelo Grape Creek,54.52,154.22,65.77,138.35,358.34,Single-ply,SBD,M
Boys,59.87,2,Fernando Carreon,Imperial Buena Vista,55.88,108.86,79.38,156.49,344.73,Single-ply,SBD,M
Boys,59.87,3,Taylor White,San Angelo Grape Creek,55.97,129.27,63.5,127.01,319.78,Single-ply,SBD,M
Boys,55.79,4,Byron Gryder,McCamey,55.61,133.81,52.16,131.54,317.51,Single-ply,SBD,M
Boys,55.79,5,Gus Barrera,Sonora,54.52,90.72,52.16,113.4,256.28,Single-ply,SBD,M
Boys,59.87,1,Austin Martinez,Mertzon Irion County,59.51,190.51,117.93,179.17,487.61,Single-ply,SBD,M
Boys,59.87,2,Alan Moreno,San Angelo Lake View,59.87,142.88,74.84,176.9,394.63,Single-ply,SBD,M
Boys,59.87,3,David Valdez,Eden,59.06,145.15,72.57,174.63,392.36,Single-ply,SBD,M
Boys,67.13,4,Saul Vargas,Ozona,60.06,140.61,83.91,163.29,387.82,Single-ply,SBD,M
Boys,67.13,5,Anthony Moreno,San Angelo Lake View,60.06,115.67,68.04,154.22,337.93,Single-ply,SBD,M
Boys,59.87,6,Will Dutton,Sonora,58.88,117.93,65.77,147.42,331.12,Single-ply,SBD,M
Boys,59.87,7,Israel Celaya,Fort Stockton,56.7,127.01,74.84,122.47,324.32,Single-ply,SBD,M
Boys,59.87,8,Danny Muro,San Angelo Lake View,57.97,95.25,58.97,122.47,276.69,Single-ply,SBD,M
Boys,59.87,9,Jonathan Leyva,San Angelo Lake View,58.51,88.45,56.7,124.74,269.89,Single-ply,SBD,M
Boys,59.87,10,Leighton Delgado,San Angelo Lake View,58.88,81.65,56.7,106.59,244.94,Single-ply,SBD,M
Boys,59.87,DQ,Stephen Seely,San Angelo Lake View,58.79,113.4,,,,Single-ply,SBD,M
Boys,59.87,DQ,Raul Nombrano,Rocksprings,56.79,,,,,Single-ply,SBD,M
Boys,59.87,DQ,Michael Vargas,Ozona,56.34,167.83,,,,Single-ply,SBD,M
Boys,67.13,1,Edward Garza,Sonora,61.14,217.72,127.01,185.97,530.7,Single-ply,SBD,M
Boys,67.13,2,Luis Rangel,Ballinger,66.13,181.44,113.4,188.24,483.08,Single-ply,SBD,M
Boys,67.13,3,Ryan Hurst,San Angelo Grape Creek,60.6,204.12,81.65,195.04,480.81,Single-ply,SBD,M
Boys,67.13,4,Cody Ortiz,Big Lake Reagan County,67.04,176.9,88.45,163.29,428.64,Single-ply,SBD,M
Boys,67.13,5,Dalton Doss,Forsan,65.05,156.49,102.06,156.49,415.04,Single-ply,SBD,M
Boys,67.13,6,Ryan Vasquez,Monahans,61.23,147.42,95.25,165.56,408.23,Single-ply,SBD,M
Boys,67.13,7,Ryan Kennedy #1,Ozona,63.14,163.29,83.91,161.03,408.23,Single-ply,SBD,M
Boys,67.13,8,Keele Valenzuela,Kermit,61.05,158.76,92.99,154.22,405.97,Single-ply,SBD,M
Boys,67.13,9,Victor Muro,San Angelo Lake View,64.05,131.54,92.99,176.9,401.43,Single-ply,SBD,M
Boys,67.13,10,Chris Cantu,Ozona,60.33,154.22,81.65,163.29,399.16,Single-ply,SBD,M
Boys,67.13,11,Edson Dehoyos,San Angelo Central,66.77,158.76,97.52,142.88,399.16,Single-ply,SBD,M
Boys,67.13,12,Deyton Riddle,San Angelo Lake View,67.04,140.61,88.45,165.56,394.63,Single-ply,SBD,M
Boys,67.13,13,Matthew Johnson #9,Miles,66.95,136.08,99.79,147.42,383.29,Single-ply,SBD,M
Boys,67.13,14,Willie Colins,Ballinger,64.14,158.76,81.65,136.08,376.48,Single-ply,SBD,M
Boys,67.13,15,Stephen Medrano,San Angelo Grape Creek,66.5,151.95,72.57,151.95,376.48,Single-ply,SBD,M
Boys,67.13,16,Josh Ashmore,McCamey,66.5,136.08,86.18,122.47,344.73,Single-ply,SBD,M
Boys,67.13,17,Jonathan Gutierrez,Sonora,63.96,106.59,77.11,138.35,322.05,Single-ply,SBD,M
Boys,67.13,NS,Jorge López,Rocksprings,,,,,,Single-ply,SBD,M
Boys,67.13,DQ,Joaquin Prieto,San Angelo Central,63.05,,,,,Single-ply,SBD,M
Boys,74.84,1,Fernando Saucedo,Big Lake Reagan County,74.75,195.04,95.25,197.31,487.61,Single-ply,SBD,M
Boys,74.84,2,Devon Hoelscher,Ballinger,71.12,170.1,124.74,179.17,474,Single-ply,SBD,M
Boys,74.84,3,Richerd Rushenberg,San Angelo Grape Creek,73.66,195.04,90.72,174.63,460.4,Single-ply,SBD,M
Boys,74.84,4,George Silva,San Angelo Lake View,74.84,170.1,83.91,204.12,458.13,Single-ply,SBD,M
Boys,74.84,5,Leo Ureste,Fort Stockton,69.67,165.56,95.25,167.83,428.64,Single-ply,SBD,M
Boys,74.84,6,Joaquin Rivero,San Angelo Central,74.75,181.44,90.72,149.69,421.84,Single-ply,SBD,M
Boys,74.84,7,Caleb Drake,San Angelo Lake View,67.68,147.42,83.91,174.63,405.97,Single-ply,SBD,M
Boys,74.84,8,Kenny Gonzales,San Angelo Lake View,69.94,136.08,90.72,165.56,392.36,Single-ply,SBD,M
Boys,74.84,9,Wyatt Cannon,Imperial Buena Vista,74.39,131.54,83.91,165.56,381.02,Single-ply,SBD,M
Boys,74.84,10,Austin Grantham,Forsan,70.22,129.27,86.18,149.69,365.14,Single-ply,SBD,M
Boys,74.84,NS,Luis Sanchez,Eldorado,,,,,,Single-ply,SBD,M
Boys,74.84,DQ,Victor Cano,Miles,74.12,142.88,90.72,,,Single-ply,SBD,M
Boys,74.84,DQ,David Pineda,McCamey,72.85,,,,,Single-ply,SBD,M
Boys,82.1,1,Jesse Daniels,Ballinger,80.74,213.19,136.08,219.99,569.26,Single-ply,SBD,M
Boys,82.1,2,Saul Acevado,San Angelo Lake View,80.65,190.51,99.79,210.92,501.22,Single-ply,SBD,M
Boys,82.1,3,AJ Sanchez,Monahans,80.83,192.78,95.25,204.12,492.15,Single-ply,SBD,M
Boys,82.1,4,Eddic Villa,Fort Stockton,75.84,174.63,88.45,208.65,471.74,Single-ply,SBD,M
Boys,82.1,5,Trenton Gardner,Big Lake Reagan County,75.3,188.24,92.99,176.9,458.13,Single-ply,SBD,M
Boys,82.1,6,Cole Schwertner,Miles,76.29,165.56,111.13,158.76,435.45,Single-ply,SBD,M
Boys,82.1,7,Daniel Lombrana,Ozona,81.65,165.56,86.18,158.76,410.5,Single-ply,SBD,M
Boys,82.1,8,Mathew Foncannon,McCamey,81.92,127.01,68.04,151.95,347,Single-ply,SBD,M
Boys,82.1,DQ,Jj Casarez,McCamey,78.47,204.12,,,,Single-ply,SBD,M
Boys,89.81,1,Marcos Rodarte,San Angelo Grape Creek,88.99,238.14,102.06,233.6,573.79,Single-ply,SBD,M
Boys,89.81,2,Christian Gonzales,Monahans,86.64,217.72,122.47,181.44,521.63,Single-ply,SBD,M
Boys,99.79,3,Eric Thomas,Ballinger,89.99,201.85,115.67,201.85,519.36,Single-ply,SBD,M
Boys,89.81,4,Auggie Woodruff,Ballinger,88.99,217.72,127.01,172.37,517.1,Single-ply,SBD,M
Boys,89.81,5,Carlos Gomez,Iraan,84.1,167.83,108.86,176.9,453.59,Single-ply,SBD,M
Boys,89.81,6,Andres Acevedo,Sonora,85.09,165.56,83.91,190.51,439.98,Single-ply,SBD,M
Boys,89.81,7,Caden Glass,Miles,82.64,158.76,113.4,161.03,433.18,Single-ply,SBD,M
Boys,89.81,8,Alex Holguin,Monahans,88.45,136.08,70.31,156.49,362.87,Single-ply,SBD,M
Boys,89.81,DQ,Taylor Hunt #1,San Angelo Central,88.54,181.44,,,,Single-ply,SBD,M
Boys,89.81,DQ,Hector Reyes,Eldorado,87.09,192.78,,,,Single-ply,SBD,M
Boys,99.79,1,Ramiro Reyes,Colorado City Colorado,98.88,294.84,210.92,254.01,759.77,Single-ply,SBD,M
Boys,99.79,2,Kyle Patlan,Sonora,99.7,210.92,145.15,195.04,551.11,Single-ply,SBD,M
Boys,99.79,3,Hazael Damian,Ozona,94.62,197.31,97.52,185.97,480.81,Single-ply,SBD,M
Boys,99.79,4,Josh Smith #26,San Angelo Lake View,96.89,197.31,99.79,174.63,471.74,Single-ply,SBD,M
Boys,99.79,5,Elijah Cross,Sonora,94.98,185.97,106.59,174.63,467.2,Single-ply,SBD,M
Boys,99.79,6,Rigo Rodriguez,Ozona,93.89,170.1,81.65,183.7,435.45,Single-ply,SBD,M
Boys,99.79,7,David Gilbert,San Angelo Grape Creek,96.62,158.76,88.45,156.49,403.7,Single-ply,SBD,M
Boys,99.79,8,Emilio Mendez,Ozona,91.17,136.08,72.57,131.54,340.19,Single-ply,SBD,M
Boys,99.79,NS,Mark Gutierrez,Rocksprings,,,,,,Single-ply,SBD,M
Boys,99.79,DQ,Aj Ramos,Ozona,93.35,,,,,Single-ply,SBD,M
Boys,99.79,DQ,Michael Powers,Fort Stockton,98.07,195.04,113.4,,,Single-ply,SBD,M
Boys,109.77,1,Riley Woodruff,Ballinger,104.05,260.82,122.47,231.33,614.62,Single-ply,SBD,M
Boys,109.77,2,Sterling Strickland,San Angelo Central,107.32,235.87,145.15,213.19,594.21,Single-ply,SBD,M
Boys,109.77,3,Angel Aguilera,Big Lake Reagan County,108.95,254.01,115.67,217.72,587.4,Single-ply,SBD,M
Boys,109.77,4,Jose Gallegos,Ballinger,101.15,206.38,113.4,208.65,528.44,Single-ply,SBD,M
Boys,109.77,5,Garrett Ford,Monahans,102.24,199.58,124.74,195.04,519.36,Single-ply,SBD,M
Boys,109.77,6,Stephen Dominguez,Sonora,107.23,192.78,117.93,192.78,503.49,Single-ply,SBD,M
Boys,109.77,7,Ausden Medrano,Forsan,104.33,197.31,108.86,195.04,501.22,Single-ply,SBD,M
Boys,109.77,8,Jordan Pitcox,Eden,103.24,181.44,108.86,192.78,483.08,Single-ply,SBD,M
Boys,124.74,9,Joseph Brooks,San Angelo Central,109.95,176.9,102.06,167.83,446.79,Single-ply,SBD,M
Boys,109.77,DQ,Michael Ybarra,Ozona,108.32,158.76,102.06,,,Single-ply,SBD,M
Boys,124.74,1,Ricky Ciuba,Mertzon Irion County,119.93,265.35,170.1,244.94,680.39,Single-ply,SBD,M
Boys,124.74,2,Christian Delgado,San Angelo Lake View,121.83,226.8,122.47,190.51,539.77,Single-ply,SBD,M
Boys,124.74,3,Boston Alvarado,Fort Stockton,113.58,222.26,115.67,192.78,530.7,Single-ply,SBD,M
Boys,124.74,4,Garrett Blackwell,Eden,121.47,195.04,113.4,215.46,523.9,Single-ply,SBD,M
Boys,124.74,5,Kelton Bales,Italy,116.85,208.65,99.79,179.17,487.61,Single-ply,SBD,M
Boys,124.74,NS,Daniel Ramirez,San Angelo Lake View,,,,,,Single-ply,SBD,M
Boys,124.74,DQ,Brandon Lopez,San Angelo Lake View,111.58,217.72,,,,Single-ply,SBD,M
Boys,124.74+,1,Hayden Vinson,San Angelo Central,138.62,238.14,129.27,233.6,601.01,Single-ply,SBD,M
Boys,124.74+,2,Dj Schlather,San Angelo Lake View,133.54,226.8,122.47,201.85,551.11,Single-ply,SBD,M
Boys,124.74+,3,Max Rivero,San Angelo Central,138.98,229.06,129.27,192.78,551.11,Single-ply,SBD,M
Boys,124.74+,4,Dimitri Pena,Monahans,138.53,204.12,113.4,181.44,498.95,Single-ply,SBD,M
Boys,124.74+,DQ,Damien Venegas,McCamey,137.89,,,,,Single-ply,SBD,M
Boys,,NS,Victor Carrasco,Big Lake Reagan County,,,,,,Single-ply,SBD,M
