Division,WeightClassKg,Place,Name,Team,BodyweightKg,Best3SquatKg,Best3BenchKg,Best3DeadliftKg,TotalKg,Equipment,Event,Sex
Boys,51.71,1,Justin Lindsey,Kennedale,51.35,176.9,88.45,167.83,433.18,Single-ply,SBD,M
Boys,51.71,2,Justin Dowdy,Wills Point,51.07,149.69,104.33,163.29,417.3,Single-ply,SBD,M
Boys,51.71,3,Juan Hernández #13,Palmer,50.8,120.2,61.23,129.27,310.71,Single-ply,SBD,M
Boys,51.71,4,Junior Chavez,Waxahachie,47.81,95.25,56.7,111.13,263.08,Single-ply,SBD,M
Boys,51.71,5,Noah Vasquez,Palmer,45.36,92.99,47.63,102.06,242.67,Single-ply,SBD,M
Boys,51.71,6,Chad Collup,Scurry-Rosser,47.45,72.57,36.29,99.79,208.65,Single-ply,SBD,M
Boys,51.71,7,Dakotah McGowen,North Forney,47.17,63.5,43.09,92.99,199.58,Single-ply,SBD,M
Boys,51.71,8,Beaux Eldred,Ferris,47.63,63.5,29.48,79.38,172.37,Single-ply,SBD,M
Boys,51.71,DQ,Ethan Stack,Scurry-Rosser,48.99,104.33,,,,Single-ply,SBD,M
Boys,55.79,1,Joseph Rico,Forney,55.79,163.29,104.33,183.7,451.32,Single-ply,SBD,M
Boys,55.79,2,Tylor Chandler,Scurry-Rosser,55.79,136.08,68.04,172.37,376.48,Single-ply,SBD,M
Boys,55.79,3,Arturo Jimenez,Ferris,55.07,131.54,61.23,140.61,333.39,Single-ply,SBD,M
Boys,59.87,4,Aaron May,Mesquite Poteet,55.88,127.01,72.57,124.74,324.32,Single-ply,SBD,M
Boys,55.79,5,Nick Henderson,Waxahachie,52.89,117.93,58.97,138.35,315.25,Single-ply,SBD,M
Boys,55.79,6,Holden Bailey,North Forney,53.71,97.52,47.63,104.33,249.48,Single-ply,SBD,M
Boys,59.87,1,Chris Hairston,Cedar Hill,59.15,179.17,97.52,188.24,464.93,Single-ply,SBD,M
Boys,59.87,2,Jeffery Cuellar,Corsicana,59.78,142.88,90.72,147.42,381.02,Single-ply,SBD,M
Boys,59.87,3,Cameron Yates,Scurry-Rosser,58.51,149.69,77.11,149.69,376.48,Single-ply,SBD,M
Boys,59.87,4,Jordan Ramirez #4,Palmer,59.15,136.08,77.11,156.49,369.68,Single-ply,SBD,M
Boys,59.87,5,Gabe Alexander,Waxahachie,58.69,129.27,68.04,131.54,328.85,Single-ply,SBD,M
Boys,59.87,6,Darius Jones #1,Dallas Life Oak Cliff,56.52,111.13,56.7,133.81,301.64,Single-ply,SBD,M
Boys,59.87,6,Darius Jones #1,Dallas Life Oak Cliff,56.52,111.13,56.7,133.81,301.64,Single-ply,SBD,M
Boys,59.87,7,Hunter Robinson,Ferris,58.51,83.91,38.56,97.52,219.99,Single-ply,SBD,M
Boys,74.84,1,Brandon Jackson,Cedar Hill,67.31,195.04,111.13,183.7,489.88,Single-ply,SBD,M
Boys,67.13,2,Darius Sockwell,Cedar Hill,66.22,185.97,99.79,195.04,480.81,Single-ply,SBD,M
Boys,67.13,3,Luke Elkins,Corsicana,63.68,165.56,102.06,174.63,442.25,Single-ply,SBD,M
Boys,67.13,4,Christian Nedd,Cedar Hill,63.41,165.56,88.45,183.7,437.72,Single-ply,SBD,M
Boys,67.13,5,Darius Campbell,Red Oak,66.13,161.03,106.59,170.1,437.72,Single-ply,SBD,M
Boys,67.13,6,DeAndre Jones,Dallas Life Oak Cliff,63.05,145.15,104.33,170.1,419.57,Single-ply,SBD,M
Boys,67.13,6,DeAndre Jones,Dallas Life Oak Cliff,63.05,145.15,104.33,170.1,419.57,Single-ply,SBD,M
Boys,67.13,7,Andre Torres,Ferris,63.14,149.69,83.91,181.44,415.04,Single-ply,SBD,M
Boys,67.13,8,Gilberto Torres,Forney,65.5,149.69,92.99,167.83,410.5,Single-ply,SBD,M
Boys,67.13,9,Christian Pugh,Royse City,65.77,147.42,97.52,163.29,408.23,Single-ply,SBD,M
Boys,67.13,10,Nick Matthews,Dallas Life Oak Cliff,66.86,156.49,77.11,172.37,405.97,Single-ply,SBD,M
Boys,67.13,10,Nick Matthews,Dallas Life Oak Cliff,66.86,156.49,77.11,172.37,405.97,Single-ply,SBD,M
Boys,67.13,11,Victor Ejiasi,North Forney,63.96,149.69,92.99,158.76,401.43,Single-ply,SBD,M
Boys,67.13,12,AJ Garcia,Kennedale,65.86,149.69,83.91,167.83,401.43,Single-ply,SBD,M
Boys,67.13,13,Denton Bridges,Terrell,65.68,142.88,104.33,151.95,399.16,Single-ply,SBD,M
Boys,67.13,14,Hector Crow,Palmer,64.68,131.54,92.99,172.37,396.89,Single-ply,SBD,M
Boys,67.13,15,Jon Mitchell,Kennedale,65.14,136.08,90.72,147.42,374.21,Single-ply,SBD,M
Boys,67.13,16,Kenn Mays,Terrell,66.86,124.74,88.45,149.69,362.87,Single-ply,SBD,M
Boys,67.13,17,Ector Rivera,Kennedale,67.13,136.08,79.38,142.88,358.34,Single-ply,SBD,M
Boys,67.13,18,Devan Mason,Kennedale,60.96,136.08,77.11,136.08,349.27,Single-ply,SBD,M
Boys,67.13,19,Mitchell Zimmerman,Ferris,62.05,138.35,77.11,133.81,349.27,Single-ply,SBD,M
Boys,74.84,20,Larry Brooks,Kennedale,67.31,129.27,77.11,127.01,333.39,Single-ply,SBD,M
Boys,67.13,21,Vernon Marrow,Wills Point,63.5,111.13,70.31,149.69,331.12,Single-ply,SBD,M
Boys,67.13,22,Trevor Harell,Wills Point,62.05,97.52,70.31,142.88,310.71,Single-ply,SBD,M
Boys,67.13,23,Chris Hernandez,Kaufman,60.96,113.4,61.23,133.81,308.44,Single-ply,SBD,M
Boys,67.13,24,Jagger Johnson,Forney,62.69,102.06,61.23,142.88,306.17,Single-ply,SBD,M
Boys,67.13,25,Tyson Ramirez,Palmer,64.32,108.86,58.97,131.54,299.37,Single-ply,SBD,M
Boys,67.13,DQ,Alex Pound,Argyle,65.77,156.49,97.52,,,Single-ply,SBD,M
Boys,74.84,1,Angel Perez,Red Oak,73.48,204.12,176.9,210.92,591.94,Single-ply,SBD,M
Boys,74.84,2,Garrett David,Waxahachie,72.57,204.12,108.86,240.4,553.38,Single-ply,SBD,M
Boys,82.1,3,Daniel Salguero,Red Oak,75.02,206.38,127.01,208.65,542.04,Single-ply,SBD,M
Boys,74.84,4,Tim Caradine,Terrell,74.03,183.7,102.06,213.19,498.95,Single-ply,SBD,M
Boys,74.84,5,Kaiser McGlothen,Kennedale,69.13,190.51,104.33,195.04,489.88,Single-ply,SBD,M
Boys,74.84,6,Gavin Pringle,Waxahachie,74.75,195.04,102.06,192.78,489.88,Single-ply,SBD,M
Boys,74.84,7,Jacob McLean,Scurry-Rosser,70.94,197.31,104.33,185.97,487.61,Single-ply,SBD,M
Boys,74.84,8,DeMarr Henry,Corsicana,70.49,172.37,102.06,181.44,455.86,Single-ply,SBD,M
Boys,74.84,9,Matt Hargis,Rockwall-Heath,74.21,158.76,102.06,165.56,426.38,Single-ply,SBD,M
Boys,74.84,10,Tanner Little,Red Oak,68.67,158.76,102.06,161.03,421.84,Single-ply,SBD,M
Boys,74.84,11,Langston Madison,Corsicana,71.58,158.76,83.91,158.76,401.43,Single-ply,SBD,M
Boys,74.84,12,Calvin Ribera,North Forney,71.58,145.15,72.57,181.44,399.16,Single-ply,SBD,M
Boys,74.84,13,Kordell Tillery,Dallas Life Oak Cliff,74.48,136.08,86.18,174.63,396.89,Single-ply,SBD,M
Boys,74.84,13,Kordell Tillery,Dallas Life Oak Cliff,74.48,136.08,86.18,174.63,396.89,Single-ply,SBD,M
Boys,74.84,14,Jacob Harris,Maypearl,67.95,147.42,86.18,140.61,374.21,Single-ply,SBD,M
Boys,74.84,15,Nick Golden,Argyle,72.57,142.88,65.77,165.56,374.21,Single-ply,SBD,M
Boys,74.84,16,Jacori Cnandler,Corsicana,72.94,129.27,79.38,151.95,360.61,Single-ply,SBD,M
Boys,74.84,17,Hayden Brock,Kennedale,69.22,136.08,72.57,149.69,358.34,Single-ply,SBD,M
Boys,74.84,18,Brandon Mims,Forney,74.03,129.27,83.91,140.61,353.8,Single-ply,SBD,M
Boys,74.84,19,Jacob Overdirth,Maypearl,68.95,136.08,79.38,136.08,351.53,Single-ply,SBD,M
Boys,74.84,20,Anthony Dargan,Ferris,74.12,117.93,88.45,142.88,349.27,Single-ply,SBD,M
Boys,74.84,21,Dakota Hernandez,Palmer,74.66,120.2,79.38,149.69,349.27,Single-ply,SBD,M
Boys,74.84,22,Brian Griffin,Scurry-Rosser,70.13,127.01,65.77,147.42,340.19,Single-ply,SBD,M
Boys,74.84,23,Seth Massheder,Terrell,73.57,102.06,72.57,136.08,310.71,Single-ply,SBD,M
Boys,74.84,24,Angel Velazquez,Kaufman,72.57,117.93,54.43,133.81,306.17,Single-ply,SBD,M
Boys,74.84,25,Josh Bermen,Kennedale,69.31,81.65,65.77,122.47,269.89,Single-ply,SBD,M
Boys,74.84,26,Kyle Kelly,Scurry-Rosser,72.21,81.65,45.36,104.33,231.33,Single-ply,SBD,M
Boys,74.84,DQ,Jordan Lynch,Dallas Life Oak Cliff,72.03,,,,,Single-ply,SBD,M
Boys,74.84,DQ,Parker Taylor,Argyle,74.3,,,,,Single-ply,SBD,M
Boys,74.84,DQ,Jordan Lynch,Dallas Life Oak Cliff,72.03,,,,,Single-ply,SBD,M
Boys,74.84,DQ,Brayton Lulloff,Wills Point,72.57,,,,,Single-ply,SBD,M
Boys,82.1,1,Josh Scott,Rockwall-Heath,81.65,235.87,147.42,235.87,619.15,Single-ply,SBD,M
Boys,82.1,2,Quentin Wooten,Rockwall-Heath,81.65,219.99,136.08,258.55,614.62,Single-ply,SBD,M
Boys,82.1,3,Sedrick Antwine,Cedar Hill,81.47,242.67,131.54,217.72,591.94,Single-ply,SBD,M
Boys,89.81,4,Chris Clark,Waxahachie,82.28,192.78,120.2,242.67,555.65,Single-ply,SBD,M
Boys,82.1,5,Cody Coldwell,Sunnyvale,76.2,215.46,120.2,206.38,542.04,Single-ply,SBD,M
Boys,89.81,6,Elijah Moore,Cedar Hill,82.19,192.78,127.01,201.85,521.63,Single-ply,SBD,M
Boys,89.81,7,Keaton Dickerson,Mesquite Poteet,82.33,197.31,90.72,181.44,469.47,Single-ply,SBD,M
Boys,82.1,8,Damian Garcia,Palmer,81.28,158.76,106.59,190.51,455.86,Single-ply,SBD,M
Boys,82.1,9,Jhovvany SanJuan,Kaufman,76.02,170.1,104.33,176.9,451.32,Single-ply,SBD,M
Boys,82.1,10,Hayden O'Pry,Forney,79.74,172.37,106.59,172.37,451.32,Single-ply,SBD,M
Boys,82.1,11,Matt Castle,Argyle,81.37,165.56,111.13,170.1,446.79,Single-ply,SBD,M
Boys,82.1,12,Caleb Smith #16,Terrell,78.29,158.76,77.11,181.44,417.3,Single-ply,SBD,M
Boys,82.1,13,Andrew Pierce,Mesquite Poteet,75.75,147.42,102.06,151.95,401.43,Single-ply,SBD,M
Boys,82.1,14,Brian Black,Palmer,78.11,151.95,83.91,156.49,392.36,Single-ply,SBD,M
Boys,82.1,15,Noah Yeldell,Kaufman,80.29,163.29,86.18,142.88,392.36,Single-ply,SBD,M
Boys,82.1,16,Jaden Knowles,Kennedale,78.47,142.88,90.72,151.95,385.55,Single-ply,SBD,M
Boys,82.1,17,Josh Hull,Wills Point,76.2,133.81,88.45,158.76,381.02,Single-ply,SBD,M
Boys,82.1,18,Jonathan Hines,Red Oak,80.74,136.08,83.91,161.03,381.02,Single-ply,SBD,M
Boys,82.1,19,Preston Bates,Seguin,77.02,115.67,74.84,154.22,344.73,Single-ply,SBD,M
Boys,82.1,20,Anthony Sanchez,Kennedale,79.47,136.08,68.04,127.01,331.12,Single-ply,SBD,M
Boys,82.1,21,Jacob Winters,Kennedale,78.93,122.47,70.31,136.08,328.85,Single-ply,SBD,M
Boys,82.1,DQ,Logan Robinson,Maypearl,81.19,,,,,Single-ply,SBD,M
Boys,82.1,DQ,Garrett Ferguson,Sunnyvale,79.83,,,,,Single-ply,SBD,M
Boys,82.1,DQ,David Secrease,Dallas Life Oak Cliff,80.74,,,,,Single-ply,SBD,M
Boys,82.1,DQ,David Secrease,Dallas Life Oak Cliff,80.74,,,,,Single-ply,SBD,M
Boys,89.81,1,Kevin Kanzaki,Argyle,89.09,240.4,133.81,217.72,591.94,Single-ply,SBD,M
Boys,89.81,2,Tyler Rudolph,Kaufman,88.27,235.87,113.4,233.6,582.87,Single-ply,SBD,M
Boys,89.81,3,Caleb High,Waxahachie,83.55,229.06,122.47,213.19,564.72,Single-ply,SBD,M
Boys,89.81,4,Tristen Carstarphen,Rockwall-Heath,87.09,213.19,129.27,222.26,564.72,Single-ply,SBD,M
Boys,89.81,5,Israel Delgadillo,Ferris,89.81,213.19,136.08,213.19,562.45,Single-ply,SBD,M
Boys,89.81,6,Dj Jefferson,Waxahachie,89.81,199.58,124.74,226.8,551.11,Single-ply,SBD,M
Boys,89.81,7,Leonardo Zavala,Waxahachie,84.82,219.99,113.4,206.38,539.77,Single-ply,SBD,M
Boys,89.81,8,Takari Wheeler,Mesquite Poteet,88.45,208.65,104.33,208.65,521.63,Single-ply,SBD,M
Boys,89.81,9,Kolbi McGary,Cedar Hill,84.73,199.58,104.33,210.92,514.83,Single-ply,SBD,M
Boys,89.81,10,Dakota Carpenter,Argyle,87.36,192.78,115.67,201.85,510.29,Single-ply,SBD,M
Boys,89.81,11,Jesse Landess,Scurry-Rosser,84.91,172.37,122.47,185.97,480.81,Single-ply,SBD,M
Boys,89.81,12,Jordan Rollins,Mesquite Poteet,83.73,167.83,102.06,185.97,455.86,Single-ply,SBD,M
Boys,89.81,13,Chris Adkinson,Corsicana,85.91,158.76,136.08,158.76,453.59,Single-ply,SBD,M
Boys,89.81,14,Desmund Brown,Terrell,87.45,163.29,95.25,172.37,430.91,Single-ply,SBD,M
Boys,89.81,15,Dillon Hampton,Seguin,84.91,190.51,86.18,151.95,428.64,Single-ply,SBD,M
Boys,89.81,16,Henry Romero,Kennedale,85.82,151.95,113.4,156.49,421.84,Single-ply,SBD,M
Boys,89.81,17,Chase Doyle,Kennedale,86,140.61,108.86,158.76,408.23,Single-ply,SBD,M
Boys,89.81,18,Brody Floyd,Kennedale,89.63,131.54,92.99,156.49,381.02,Single-ply,SBD,M
Boys,89.81,19,Alex Nguyen,Seguin,82.55,142.88,63.5,154.22,360.61,Single-ply,SBD,M
Boys,89.81,20,Luis Solis,Ferris,85.91,124.74,77.11,129.27,331.12,Single-ply,SBD,M
Boys,89.81,DQ,Hunter Proctor,Maypearl,83.55,,,,,Single-ply,SBD,M
Boys,109.77,1,Adam Arredondo,Waxahachie,99.97,283.5,149.69,233.6,666.78,Single-ply,SBD,M
Boys,99.79,2,Tim Hutchins,Cedar Hill,91.17,242.67,147.42,240.4,630.49,Single-ply,SBD,M
Boys,99.79,3,Darius Watson,Corsicana,96.98,226.8,124.74,222.26,573.79,Single-ply,SBD,M
Boys,99.79,4,Tyriq Burnett,Wills Point,92.53,192.78,122.47,204.12,519.36,Single-ply,SBD,M
Boys,99.79,5,Ezavian Franklin,Dallas Life Oak Cliff,97.98,204.12,122.47,188.24,514.83,Single-ply,SBD,M
Boys,99.79,5,Ezavian Franklin,Dallas Life Oak Cliff,97.98,204.12,122.47,188.24,514.83,Single-ply,SBD,M
Boys,99.79,6,Paxton Bertrand,Ferris,97.52,183.7,108.86,217.72,510.29,Single-ply,SBD,M
Boys,99.79,7,Bronson Lincks,Red Oak,96.25,192.78,104.33,197.31,494.42,Single-ply,SBD,M
Boys,99.79,8,Drew Coleman,Forney,92.44,170.1,120.2,185.97,476.27,Single-ply,SBD,M
Boys,99.79,9,Ty Tidwell,Corsicana,98.43,165.56,117.93,183.7,467.2,Single-ply,SBD,M
Boys,99.79,10,Demitri Lunsford,Corsicana,96.25,167.83,124.74,172.37,464.93,Single-ply,SBD,M
Boys,99.79,11,Kenny Jones,Ferris,98.79,167.83,124.74,167.83,460.4,Single-ply,SBD,M
Boys,99.79,12,Christian Tejeda,Mesquite Poteet,95.25,176.9,102.06,174.63,453.59,Single-ply,SBD,M
Boys,99.79,13,Brenton Walker,Mesquite Poteet,97.07,161.03,102.06,183.7,446.79,Single-ply,SBD,M
Boys,99.79,14,Cesar Rivera,North Forney,92.99,165.56,92.99,172.37,430.91,Single-ply,SBD,M
Boys,99.79,15,JP Sales,Sunnyvale,96.62,172.37,72.57,181.44,426.38,Single-ply,SBD,M
Boys,99.79,16,Christian Hoover,Forney,98.7,174.63,90.72,158.76,424.11,Single-ply,SBD,M
Boys,99.79,17,Hunter Hays,Kaufman,99.16,172.37,88.45,161.03,421.84,Single-ply,SBD,M
Boys,99.79,18,Malkeithias Baker,Terrell,99.43,158.76,83.91,179.17,421.84,Single-ply,SBD,M
Boys,99.79,19,Stone Gibson,Forney,91.99,151.95,108.86,145.15,405.97,Single-ply,SBD,M
Boys,99.79,20,Seth White,Corsicana,98.43,154.22,83.91,158.76,396.89,Single-ply,SBD,M
Boys,99.79,21,Braxton Tipton,Forney,96.43,158.76,70.31,154.22,383.29,Single-ply,SBD,M
Boys,99.79,22,Ricardo Pena #2,Kennedale,90.72,158.76,72.57,149.69,381.02,Single-ply,SBD,M
Boys,99.79,23,Lorenzo Reyes,Wills Point,99.25,113.4,90.72,138.35,342.46,Single-ply,SBD,M
Boys,99.79,24,Brain Parish,Seguin,96.71,136.08,68.04,136.08,340.19,Single-ply,SBD,M
Boys,99.79,DQ,Bryant Ly,Maypearl,98.16,,,,,Single-ply,SBD,M
Boys,99.79,DQ,Trent Podleski,Rockwall-Heath,97.07,183.7,,,,Single-ply,SBD,M
Boys,99.79,DQ,Jonathan Sackett,Red Oak,99.79,147.42,133.81,,,Single-ply,SBD,M
Boys,109.77,1,Antonio Harris,Terrell,109.68,231.33,147.42,231.33,610.08,Single-ply,SBD,M
Boys,109.77,2,D Falana,Cedar Hill,101.7,226.8,136.08,231.33,594.21,Single-ply,SBD,M
Boys,109.77,3,Matthew Naugle,Kennedale,107.77,240.4,136.08,208.65,585.13,Single-ply,SBD,M
Boys,109.77,4,Zach Gray,Wills Point,108.23,217.72,142.88,204.12,564.72,Single-ply,SBD,M
Boys,109.77,5,Jermal Warren,Dallas Life Oak Cliff,106.14,204.12,156.49,192.78,553.38,Single-ply,SBD,M
Boys,109.77,5,Jermal Warren,Dallas Life Oak Cliff,106.14,204.12,156.49,192.78,553.38,Single-ply,SBD,M
Boys,109.77,6,Aysar Awad,Mesquite Poteet,109.41,229.06,145.15,167.83,542.04,Single-ply,SBD,M
Boys,109.77,7,Jimmy Landess,Scurry-Rosser,109.68,199.58,111.13,222.26,532.97,Single-ply,SBD,M
Boys,109.77,8,Andrew Hardman,Wills Point,101.88,217.72,115.67,181.44,514.83,Single-ply,SBD,M
Boys,109.77,9,Corey Mullican,Kaufman,105.51,199.58,99.79,197.31,496.68,Single-ply,SBD,M
Boys,109.77,10,Tim Akinyode,Seguin,102.69,188.24,81.65,192.78,462.66,Single-ply,SBD,M
Boys,109.77,11,Grant Fischer,North Forney,103.87,158.76,95.25,199.58,453.59,Single-ply,SBD,M
Boys,109.77,12,Bryce Hege,Argyle,109.41,167.83,83.91,195.04,446.79,Single-ply,SBD,M
Boys,109.77,13,Cesar Mancera,Ferris,103.33,179.17,102.06,154.22,435.45,Single-ply,SBD,M
Boys,109.77,14,David Taylor,Seguin,101.42,170.1,81.65,181.44,433.18,Single-ply,SBD,M
Boys,109.77,15,Nathan Manure,Corsicana,105.41,149.69,122.47,156.49,428.64,Single-ply,SBD,M
Boys,124.74,16,Hayden Willoughby,Scurry-Rosser,109.95,163.29,90.72,172.37,426.38,Single-ply,SBD,M
Boys,109.77,17,Chris Palmer,Scurry-Rosser,109.23,158.76,97.52,158.76,415.04,Single-ply,SBD,M
Boys,109.77,18,Terrian Livingston,Seguin,109.41,149.69,90.72,163.29,403.7,Single-ply,SBD,M
Boys,109.77,19,Jacob Kinney,Ferris,105.23,163.29,65.77,142.88,371.95,Single-ply,SBD,M
Boys,109.77,20,Steven Fulmer,Seguin,100.52,163.29,70.31,136.08,369.68,Single-ply,SBD,M
Boys,109.77,21,Terrell Haynes,Seguin,104.33,142.88,72.57,124.74,340.19,Single-ply,SBD,M
Boys,109.77,DQ,Lucas Billings,North Forney,103.65,140.61,,,,Single-ply,SBD,M
Boys,124.74,1,Victor Mejia,Palmer,115.85,274.42,161.03,265.35,700.8,Single-ply,SBD,M
Boys,124.74,2,Armando Martinez,Red Oak,120.2,233.6,129.27,226.8,589.67,Single-ply,SBD,M
Boys,124.74,3,Caleb Hall-Abbott,Waxahachie,116.48,199.58,149.69,238.14,587.4,Single-ply,SBD,M
Boys,124.74,4,Ja'Coby Paul,Terrell,119.02,213.19,147.42,226.8,587.4,Single-ply,SBD,M
Boys,124.74,5,Jonathan Amaro,Wills Point,118.84,204.12,124.74,185.97,514.83,Single-ply,SBD,M
Boys,124.74,6,Daymon Littleton,Mesquite Poteet,114.67,206.38,111.13,179.17,496.68,Single-ply,SBD,M
Boys,124.74,7,Johnny Zielinski,Kennedale,120.29,195.04,115.67,183.7,494.42,Single-ply,SBD,M
Boys,124.74,8,Cody Lambert,Forney,117.48,210.92,106.59,172.37,489.88,Single-ply,SBD,M
Boys,124.74,9,Jiovanny Rubio,Sunnyvale,122.47,185.97,111.13,190.51,487.61,Single-ply,SBD,M
Boys,124.74,10,Preston Burke,Sunnyvale,122.02,165.56,99.79,185.97,451.32,Single-ply,SBD,M
Boys,124.74,11,Logan Shoup,Seguin,120.38,181.44,72.57,172.37,426.38,Single-ply,SBD,M
Boys,124.74,12,Juan Gomez,Ferris,124.74,174.63,86.18,165.56,426.38,Single-ply,SBD,M
Boys,124.74,13,Devin Beamon,North Forney,112.94,149.69,95.25,172.37,417.3,Single-ply,SBD,M
Boys,124.74,14,Austin Patricia,North Forney,116.57,145.15,74.84,176.9,396.89,Single-ply,SBD,M
Boys,124.74,15,Christian Jordan,Dallas Life Oak Cliff,123.65,140.61,99.79,156.49,396.89,Single-ply,SBD,M
Boys,124.74,15,Christian Jordan,Dallas Life Oak Cliff,123.65,140.61,99.79,156.49,396.89,Single-ply,SBD,M
Boys,124.74,16,Adam Friesen,North Forney,113.4,138.35,79.38,176.9,394.63,Single-ply,SBD,M
Boys,124.74,17,Ray Yates,North Forney,115.35,149.69,72.57,142.88,365.14,Single-ply,SBD,M
Boys,124.74,18,Brett Bostad,Kennedale,114.31,174.63,20.41,158.76,353.8,Single-ply,SBD,M
Boys,124.74,19,Dustin Brewer,Maypearl,115.12,92.99,58.97,111.13,263.08,Single-ply,SBD,M
Boys,124.74+,1,Clifton Coffey,Cedar Hill,154.22,288.03,167.83,274.42,730.28,Single-ply,SBD,M
Boys,124.74+,2,Wade Cookston,Sunnyvale,137.44,272.16,188.24,267.62,728.02,Single-ply,SBD,M
Boys,124.74+,3,Eric Roberts,Terrell,139.71,272.16,151.95,226.8,650.91,Single-ply,SBD,M
Boys,124.74+,4,Norris Floyd,North Forney,131.04,260.82,127.01,247.21,635.03,Single-ply,SBD,M
Boys,124.74+,5,Terrick Rabb,Kennedale,135.17,254.01,161.03,219.99,635.03,Single-ply,SBD,M
Boys,124.74+,6,Jorge Guerrero,Rockwall-Heath,149.69,251.74,149.69,226.8,628.23,Single-ply,SBD,M
Boys,124.74+,7,Andrew Flannigan,Kennedale,141.7,226.8,149.69,240.4,616.89,Single-ply,SBD,M
Boys,124.74+,8,Adam Dyer,Argyle,127.01,244.94,115.67,244.94,605.55,Single-ply,SBD,M
Boys,124.74+,9,Alfredo Cervantes,Royse City,139.71,226.8,138.35,204.12,569.26,Single-ply,SBD,M
Boys,124.74+,10,Nolyn Riley,Red Oak,126.19,201.85,90.72,219.99,512.56,Single-ply,SBD,M
Boys,124.74+,11,Xavier Landum,Mesquite Poteet,132.45,188.24,129.27,165.56,483.08,Single-ply,SBD,M
Boys,124.74+,12,Daveyon Barnes,Dallas Life Oak Cliff,156.04,165.56,104.33,172.37,442.25,Single-ply,SBD,M
Boys,124.74+,12,Daveyon Barnes,Dallas Life Oak Cliff,156.04,165.56,104.33,172.37,442.25,Single-ply,SBD,M
Boys,124.74+,13,Blake Haynes,Maypearl,130.36,158.76,88.45,183.7,430.91,Single-ply,SBD,M
Boys,124.74+,14,Jim Threet,Sunnyvale,141.07,149.69,92.99,172.37,415.04,Single-ply,SBD,M
Boys,124.74+,15,Juilo Fanto,Corsicana,127.91,156.49,97.52,151.95,405.97,Single-ply,SBD,M
Boys,124.74+,16,Ruben Garcia,Ferris,145.15,136.08,74.84,161.03,371.95,Single-ply,SBD,M
Boys,124.74+,DQ,Cj Carrington,Forney,128.37,,,,,Single-ply,SBD,M
Boys,124.74+,DQ,JC Bennett,Rockwall-Heath,135.17,226.8,113.4,,,Single-ply,SBD,M
