Place,Name,Sex,Event,Division,WeightClassKg,Equipment,BirthYear,State,BodyweightKg,Squat1Kg,Squat2Kg,Squat3Kg,Best3SquatKg,Bench1Kg,Bench2Kg,Bench3Kg,Best3BenchKg,Deadlift1Kg,Deadlift2Kg,Deadlift3Kg,Best3DeadliftKg,TotalKg
DQ,Jesse Martinez,M,SBD,MR-O,74,Raw,1980,CA,73.5,180,187.5,190,190,-130,-130,-130,,,,,,
1,Angela Currie,F,B,FR-O,72,Raw,1978,CA,65.6,,,,,60,65,70,70,,,,,70
2,Bethany Scamara,F,B,FR-O,72,Raw,1988,CA,68.7,,,,,47.5,55,60,60,,,,,60
1,Robert Kanamoto,M,B,MR-O,66,Raw,1962,CA,64.8,,,,,130,132.5,,132.5,,,,,132.5
1,Harry Salem III,M,B,MR-O,93,Raw,1986,CA,89.3,,,,,62.5,70,80,80,,,,,80
1,Cathleen Lavelle,F,D,FR-O,63,Raw,1986,CA,59.8,,,,,,,,,125,132.5,140,140,140
1,Monica Medrano,F,D,FR-O,72,Raw,1981,CA,71.9,,,,,,,,,150,162.5,-165,162.5,162.5
2,Nicole Storin,F,D,FR-O,72,Raw,1989,CA,65.9,,,,,,,,,120,127.5,132.5,132.5,132.5
1,Brenda Ahearn,F,D,FR-O,84,Raw,1984,CA,76.7,,,,,,,,,165,175,187.5,187.5,187.5
2,April Ghiroli,F,D,FR-O,84,Raw,1988,CA,79.8,,,,,,,,,165,175,185,185,185
3,Cassi Gill,F,D,FR-O,84,Raw,1983,CA,80.9,,,,,,,,,135,145,152.5,152.5,152.5
1,Janrad Fikingas,M,D,MR-Jr,66,Raw,1995,CA,65.7,,,,,,,,,187.5,205,-210,205,205
1,Jeffrey Starr,M,D,MR-M3a,120,Raw,1955,CA,107.3,,,,,,,,,125,140,155,155,155
1,Daeryl Amponin,M,D,MR-O,74,Raw,1986,NY,72.8,,,,,,,,,210,220,227.5,227.5,227.5
2,Anthony Elbancol,M,D,MR-O,74,Raw,1987,CA,73.8,,,,,,,,,207.5,217.5,225,225,225
1,Alexander Efird,M,D,MR-O,93,Raw,1999,CA,92.1,,,,,,,,,265,275,277.5,277.5,277.5
2,Salvador Ocampo Jr,M,D,MR-O,93,Raw,1982,CA,92,,,,,,,,,195,210,227.5,227.5,227.5
3,Harry Salem III,M,D,MR-O,93,Raw,1986,CA,89.3,,,,,,,,,90,112.5,135,135,135
1,Brenna Patterson,F,SBD,FR-Jr,63,Raw,1995,CA,62.4,130,137.5,142.5,142.5,75,80,85,85,155,165,172.5,172.5,400
2,Ayako Ota,F,SBD,FR-Jr,63,Raw,1994,CA,61.6,107.5,115,120,120,55,60,-62.5,60,122.5,132.5,137.5,137.5,317.5
3,Diana Lopez,F,SBD,FR-Jr,63,Raw,1996,CA,58.2,110,115,-122.5,115,45,-52.5,-52.5,45,140,147.5,155,155,315
4,Elizabeth Efird,F,SBD,FR-Jr,63,Raw,1997,CA,61.6,102.5,-115,-115,102.5,57.5,62.5,65,65,107.5,112.5,117.5,117.5,285
1,Jenn David,F,SBD,FR-M1a,63,Raw,1974,CA,63,97.5,107.5,-110,107.5,52.5,60,-65,60,130,140,-145,140,307.5
2,Aileen Abad,F,SBD,FR-M1a,63,Raw,1973,CA,63,87.5,-95,95,95,47.5,52.5,-57.5,52.5,110,115,-120,115,262.5
1,Margo Anderson,F,SBD,FR-M1a,84+,Raw,1976,CA,96.6,85,92.5,100,100,57.5,65,-67.5,65,112.5,122.5,130,130,295
1,Lorna Liu,F,SBD,FR-M1b,47,Raw,1969,CA,45.4,47.5,52.5,62.5,62.5,27.5,-32.5,-32.5,27.5,67.5,72.5,80,80,170
1,Krista Dornbush,F,SBD,FR-M1b,72,Raw,1969,CA,71.2,120,127.5,-135,127.5,65,72.5,-77.5,72.5,140,150,157.5,157.5,357.5
1,Kathie Sweeten,F,SBD,FR-M2a,84,Raw,1967,CA,73.7,77.5,90,97.5,97.5,45,50,55,55,82.5,95,105,105,257.5
1,Jenna Arguelles,F,SBD,FR-O,52,Raw,1991,CA,50.2,107.5,-115,-115,107.5,50,52.5,-55,52.5,120,127.5,137.5,137.5,297.5
2,Daisy Mollica,F,SBD,FR-O,52,Raw,1988,CA,51.7,97.5,110,-115,110,57.5,62.5,-70,62.5,102.5,112.5,120,120,292.5
3,Marissa Rall,F,SBD,FR-O,52,Raw,1991,CA,50.9,92.5,97.5,100,100,42.5,45,-47.5,45,102.5,105,115,115,260
1,Selin Dag,F,SBD,FR-O,57,Raw,1989,CA,56,92.5,97.5,100,100,-75,75,80,80,120,125,135,135,315
2,Gina Lam,F,SBD,FR-O,57,Raw,1991,CA,56.8,102.5,-110,110,110,47.5,50,55,55,132.5,142.5,145,145,310
3,Samantha Nava,F,SBD,FR-O,57,Raw,1991,CA,55.1,90,97.5,-102.5,97.5,47.5,52.5,55,55,135,145,152.5,152.5,305
4,Caitlin Delmore,F,SBD,FR-O,57,Raw,1991,CA,55.7,100,107.5,112.5,112.5,47.5,55,-60,55,110,117.5,122.5,122.5,290
1,Melis Papila,F,SBD,FR-O,63,Raw,1988,CA,63,-115,122.5,127.5,127.5,55,62.5,-65,62.5,140,150,-160,150,340
2,Heidi Van Mastrigt,F,SBD,FR-O,63,Raw,1991,CA,62.6,100,107.5,115,115,45,50,52.5,52.5,130,140,147.5,147.5,315
3,Jenn David,F,SBD,FR-O,63,Raw,1974,CA,63,97.5,107.5,-110,107.5,52.5,60,-65,60,130,140,-145,140,307.5
4,Kristine de la Rosa,F,SBD,FR-O,63,Raw,1985,CA,62.5,82.5,90,97.5,97.5,47.5,50,-55,50,110,115,120,120,267.5
5,Cynthia Fuentes,F,SBD,FR-O,63,Raw,1983,CA,61.8,95,100,-102.5,100,50,52.5,55,55,100,-110,110,110,265
6,Aileen Abad,F,SBD,FR-O,63,Raw,1973,CA,63,87.5,-95,95,95,47.5,52.5,-57.5,52.5,110,115,-120,115,262.5
7,Kori Grylls,F,SBD,FR-O,63,Raw,1990,CA,62.1,90,-92.5,92.5,92.5,50,52.5,-55,52.5,97.5,102.5,105,105,250
1,Shedna Kimble,F,SBD,FR-O,72,Raw,1989,CA,71.3,122.5,130,-132.5,130,70,-77.5,-77.5,70,155,165,172.5,172.5,372.5
2,Amber Damian,F,SBD,FR-O,72,Raw,1989,CA,67.1,107.5,115,122.5,122.5,-82.5,87.5,92.5,92.5,145,-155,155,155,370
3,Lorena Preciado,F,SBD,FR-O,72,Raw,1981,CA,69.2,135,-147.5,147.5,147.5,57.5,-60,60,60,142.5,152.5,155,155,362.5
4,Krista Dornbush,F,SBD,FR-O,72,Raw,1969,CA,71.2,120,127.5,-135,127.5,65,72.5,-77.5,72.5,140,150,157.5,157.5,357.5
5,Monica Medrano,F,SBD,FR-O,72,Raw,1981,CA,71.9,107.5,110,-115,110,-65,-70,70,70,150,162.5,-165,162.5,342.5
6,Kandise Nicole Sanders,F,SBD,FR-O,72,Raw,1987,CA,66.7,97.5,105,110,110,57.5,65,-70,65,105,115,120,120,295
7,Sareena Bantad,F,SBD,FR-O,72,Raw,1993,CA,67.7,90,97.5,-102.5,97.5,62.5,65,67.5,67.5,125,127.5,-130,127.5,292.5
8,Krystal Tejeiro,F,SBD,FR-O,72,Raw,1990,CA,68.2,-85,90,95,95,47.5,52.5,-57.5,52.5,112.5,117.5,-122.5,117.5,265
9,Adriana Ferrer,F,SBD,FR-O,72,Raw,1991,CA,69.5,85,90,95,95,42.5,47.5,-50,47.5,107.5,112.5,120,120,262.5
1,April Ghiroli,F,SBD,FR-O,84,Raw,1988,CA,79.8,125,130,135,135,80,85,-87.5,85,165,175,185,185,405
2,Brenda Ahearn,F,SBD,FR-O,84,Raw,1984,CA,76.7,115,120,125,125,70,75,-77.5,75,165,175,187.5,187.5,387.5
3,Cassi Gill,F,SBD,FR-O,84,Raw,1983,CA,80.9,115,120,-125,120,47.5,52.5,-57.5,52.5,135,145,152.5,152.5,325
1,Kelley Seitz,F,SBD,FR-O,84+,Raw,1990,CA,99.7,157.5,165,-175,165,75,80,-85,80,172.5,185,190,190,435
2,Katherine Sheets,F,SBD,FR-O,84+,Raw,1979,CA,115.8,157.5,170,185,185,75,82.5,-92.5,82.5,152.5,167.5,-177.5,167.5,435
3,Talia Cortese,F,SBD,FR-O,84+,Raw,1990,CA,96.3,135,140,145,145,65,-70,70,70,147.5,157.5,165,165,380
4,Christen Diaz,F,SBD,FR-O,84+,Raw,1983,CA,88.2,110,115,120,120,57.5,62.5,65,65,130,140,150,150,335
1,Tessa Parkes,F,SBD,FR-T1,63,Raw,2002,CA,59.9,55,67.5,72.5,72.5,45,50,52.5,52.5,82.5,85,-92.5,85,210
1,Jessica Chapman,F,SBD,FR-T3,72,Raw,1997,CA,71.3,112.5,122.5,-130,122.5,55,60,-65,60,125,137.5,-155,137.5,320
1,Grace Diaz,F,SBD,FR-Y1,43,Raw,2007,CA,43,40,-42.5,45,45,12.5,17.5,20,20,50,57.5,65,65,130
1,Lester Philip Nolasco,M,SBD,MR-Jr,53,Raw,1994,CA,50.8,117.5,122.5,127.5,127.5,70,75,77.5,77.5,145,155,165,165,370
1,Justin Ellis,M,SBD,MR-Jr,74,Raw,1996,CA,72.9,-160,160,-172.5,160,127.5,132.5,-137.5,132.5,207.5,217.5,222.5,222.5,515
1,Omar Cuevas,M,SBD,MR-Jr,83,Raw,1995,CA,82.8,200,212.5,220,220,127.5,132.5,-137.5,132.5,240,252.5,267.5,267.5,620
2,Samuel Sowell,M,SBD,MR-Jr,83,Raw,1996,CA,82.5,207.5,217.5,225,225,117.5,122.5,-125,122.5,247.5,260,-272.5,260,607.5
3,Kameron Duke,M,SBD,MR-Jr,83,Raw,1997,CA,81.4,175,185,190,190,130,137.5,-142.5,137.5,207.5,217.5,-225,217.5,545
4,Marcus Jeon,M,SBD,MR-Jr,83,Raw,1996,CA,80.8,175,185,190,190,115,-120,-120,115,197.5,-207.5,207.5,207.5,512.5
5,Anthony Estrella,M,SBD,MR-Jr,83,Raw,1994,CA,80.5,165,170,175,175,95,100,102.5,102.5,215,225,232.5,232.5,510
1,Ronald Siu,M,SBD,MR-Jr,93,Raw,1994,CA,93,200,210,,210,120,-125,-125,120,237.5,247.5,-262.5,247.5,577.5
2,Gerard Recinto,M,SBD,MR-Jr,93,Raw,1996,CA,85.4,167.5,175,185,185,87.5,92.5,100,100,212.5,-220,220,220,505
1,James Triplett II,M,SBD,MR-Jr,120+,Raw,1993,CA,151.1,252.5,265,275,275,172.5,182.5,190,190,285,305,320,320,785
1,Brent Appleton,M,SBD,MR-M1a,83,Raw,1973,CA,82.5,-165,170,182.5,182.5,115,120,125,125,192.5,202.5,-210,202.5,510
2,Daniel Lee #1,M,SBD,MR-M1a,83,Raw,1974,CA,81.1,167.5,177.5,187.5,187.5,80,90,95,95,167.5,177.5,-185,177.5,460
1,Brandon Littlefield,M,SBD,MR-M1a,93,Raw,1977,CA,88.6,205,217.5,-222.5,217.5,152.5,157.5,-165,157.5,197.5,207.5,-215,207.5,582.5
2,Yaraslau Ivaniuk,M,SBD,MR-M1a,93,Raw,1977,CA,92.6,195,205,-220,205,135,140,-142.5,140,205,220,-230,220,565
3,Robert Cordero,M,SBD,MR-M1a,93,Raw,1973,CA,92.9,-195,-195,195,195,105,110,115,115,155,160,167.5,167.5,477.5
4,David Valente,M,SBD,MR-M1a,93,Raw,1977,CA,92.4,125,137.5,142.5,142.5,100,105,-110,105,170,185,-195,185,432.5
1,Lee Crisp,M,SBD,MR-M1a,120,Raw,1974,CA,112.1,205,222.5,232.5,232.5,165,170,-172.5,170,250,260,265,265,667.5
1,Jojo Alilain,M,SBD,MR-M1b,93,Raw,1971,CA,91.9,160,170,182.5,182.5,-112.5,112.5,-115,112.5,205,225,-230,225,520
2,Chris Dornbush,M,SBD,MR-M1b,93,Raw,1970,CA,91.3,140,150,155,155,100,105,-110,105,180,190,200,200,460
1,Michael Efird,M,SBD,MR-M1b,105,Raw,1971,CA,104.3,210,217.5,-225,217.5,150,157.5,-160,157.5,220,-225,225,225,600
2,Miguel Cerda,M,SBD,MR-M1b,105,Raw,1969,CA,102.9,177.5,-187.5,192.5,192.5,130,137.5,142.5,142.5,222.5,235,245,245,580
1,James Darden,M,SBD,MR-M2b,105,Raw,1961,CA,97.8,185,195,202.5,202.5,95,100,105,105,185,195,202.5,202.5,510
2,Steve Heyl,M,SBD,MR-M2b,105,Raw,1960,CA,96.3,115,142.5,-150,142.5,92.5,102.5,-110,102.5,165,175,182.5,182.5,427.5
1,Dino Lewis,M,SBD,MR-M3a,105,Raw,1957,CA,103.1,115,125,137.5,137.5,87.5,92.5,102.5,102.5,135,142.5,150,150,390
1,Royce Saunders,M,SBD,MR-M3b,120,Raw,1952,CA,117.9,110,117.5,122.5,122.5,90,100,107.5,107.5,155,167.5,175,175,405
1,Gordon Santee,M,SBD,MR-M4a,66,Raw,1946,CA,61.3,65,77.5,87.5,87.5,65,70,75,75,135,147.5,155,155,317.5
1,Michael Purugganan,M,SBD,MR-O,59,Raw,1987,CA,58.4,130,147.5,-155,147.5,80,87.5,-95,87.5,140,160,167.5,167.5,402.5
1,Janrad Fikingas,M,SBD,MR-O,66,Raw,1995,CA,65.7,150,165,175,175,105,115,120,120,187.5,205,-210,205,500
1,Daeryl Amponin,M,SBD,MR-O,74,Raw,1986,NY,72.8,-177.5,177.5,187.5,187.5,120,127.5,-132.5,127.5,210,220,227.5,227.5,542.5
2,Anthony Elbancol,M,SBD,MR-O,74,Raw,1987,CA,73.8,172.5,182.5,-187.5,182.5,105,107.5,-110,107.5,207.5,217.5,225,225,515
1,Yangsu Ren,M,SBD,MR-O,83,Raw,1988,CA,81.1,207.5,227.5,240,240,125,142.5,150,150,305,322.5,332.5,332.5,722.5
2,Esiquio Franco,M,SBD,MR-O,83,Raw,1986,CA,83,180,-192.5,-192.5,180,135,140,-145,140,240,247.5,255,255,575
3,Marlowe Dean,M,SBD,MR-O,83,Raw,1988,CA,82.3,185,200,-205,200,127.5,-135,137.5,137.5,205,220,227.5,227.5,565
4,John Dlugosz,M,SBD,MR-O,83,Raw,1991,CA,81.4,172.5,182.5,197.5,197.5,112.5,120,-127.5,120,215,227.5,235,235,552.5
5,Sasan Amini,M,SBD,MR-O,83,Raw,1993,CA,82.2,162.5,-175,187.5,187.5,130,140,-155,140,192.5,200,-210,200,527.5
6,Jordan Corio,M,SBD,MR-O,83,Raw,1992,CA,83,150,-157.5,157.5,157.5,125,130,135,135,200,205,210,210,502.5
7,Kishen Sharma,M,SBD,MR-O,83,Raw,1991,CA,82.2,172.5,182.5,-190,182.5,120,-127.5,-127.5,120,177.5,185,-192.5,185,487.5
8,Kevin Porter,M,SBD,MR-O,83,Raw,1989,CA,79.9,140,145,150,150,110,115,120,120,185,195,202.5,202.5,472.5
9,Richard Hickey,M,SBD,MR-O,83,Raw,1991,CA,75.4,160,165,-170,165,100,105,-110,105,182.5,192.5,-197.5,192.5,462.5
10,Bryan Jackson,M,SBD,MR-O,83,Raw,1979,CA,80.4,125,142.5,150,150,95,105,-107.5,105,175,-200,-200,175,430
1,Michael Hurley II,M,SBD,MR-O,93,Raw,1990,CA,89.8,212.5,225,232.5,232.5,130,137.5,142.5,142.5,255,265,272.5,272.5,647.5
2,Luke Propst,M,SBD,MR-O,93,Raw,1978,CA,91.2,222.5,235,242.5,242.5,155,165,-172.5,165,222.5,235,-242.5,235,642.5
3,Jared Policastro,M,SBD,MR-O,93,Raw,1983,CA,91.6,210,217.5,227.5,227.5,162.5,-172.5,-172.5,162.5,227.5,237.5,245,245,635
4,Raymarco Garcia,M,SBD,MR-O,93,Raw,1987,CA,92.6,215,227.5,-232.5,227.5,142.5,-152.5,-152.5,142.5,265,-272.5,-280,265,635
5,Luis Molina,M,SBD,MR-O,93,Raw,1991,CA,92.7,212.5,220,-222.5,220,140,147.5,150,150,227.5,237.5,245,245,615
6,Paul Inga,M,SBD,MR-O,93,Raw,1989,CA,90.5,180,-192.5,202.5,202.5,127.5,-142.5,-142.5,127.5,225,242.5,262.5,262.5,592.5
7,Jay Clancy,M,SBD,MR-O,93,Raw,1984,CA,88.3,172.5,187.5,200,200,125,135,137.5,137.5,227.5,240,250,250,587.5
8,Brandon Littlefield,M,SBD,MR-O,93,Raw,1977,CA,88.6,205,217.5,-222.5,217.5,152.5,157.5,-165,157.5,197.5,207.5,-215,207.5,582.5
9,Wyatt Ozmore,M,SBD,MR-O,93,Raw,1990,CA,90,182.5,195,205,205,132.5,142.5,150,150,197.5,210,220,220,575
10,Lee Domingo,M,SBD,MR-O,93,Raw,1990,CA,89.7,205,212.5,-220,212.5,-137.5,137.5,,137.5,217.5,222.5,-227.5,222.5,572.5
11,Ivan Cruz,M,SBD,MR-O,93,Raw,1993,CA,87.9,175,182.5,190,190,127.5,135,-137.5,135,225,235,245,245,570
12,James Young #4,M,SBD,MR-O,93,Raw,1986,CA,90.3,170,180,185,185,125,132.5,-137.5,132.5,205,215,222.5,222.5,540
13,Austin Soligon,M,SBD,MR-O,93,Raw,1994,CA,91.9,182.5,-195,-197.5,182.5,112.5,-120,,112.5,225,235,-242.5,235,530
14,Jason Coniglione,M,SBD,MR-O,93,Raw,1987,CA,91.9,170,180,-182.5,180,122.5,127.5,-135,127.5,182.5,190,-200,190,497.5
15,Lloyd Kay,M,SBD,MR-O,93,Raw,1996,CA,89.1,160,170,-177.5,170,100,102.5,-105,102.5,167.5,170,177.5,177.5,450
16,David Valente,M,SBD,MR-O,93,Raw,1977,CA,92.4,125,137.5,142.5,142.5,100,105,-110,105,170,185,-195,185,432.5
1,Dima Novikov,M,SBD,MR-O,105,Raw,1977,CA,103.9,237.5,-250,-250,237.5,160,-165,,160,247.5,260,-272.5,260,657.5
2,Enrique Medrano,M,SBD,MR-O,105,Raw,1982,CA,96.1,180,-195,195,195,112.5,120,-130,120,205,220,230,230,545
3,Mike Shea,M,SBD,MR-O,105,Raw,1984,CA,97.2,182.5,197.5,-212.5,197.5,105,112.5,117.5,117.5,195,207.5,220,220,535
4,Phuc Nguyen,M,SBD,MR-O,105,Raw,1980,CA,103,-170,177.5,185,185,92.5,97.5,-105,97.5,185,195,-200,195,477.5
1,John Planas,M,SBD,MR-O,120,Raw,1974,CA,118.8,285,302.5,310,310,185,-197.5,-197.5,185,297.5,315,-322.5,315,810
2,Lee Crisp,M,SBD,MR-O,120,Raw,1974,CA,112.1,205,222.5,232.5,232.5,165,170,-172.5,170,250,260,265,265,667.5
3,Michael Garcia,M,SBD,MR-O,120,Raw,1983,CA,114.7,215,227.5,-232.5,227.5,125,130,135,135,215,227.5,232.5,232.5,595
1,Alton Parkes,M,SBD,MR-T1,53,Raw,2003,CA,52.7,70,82.5,87.5,87.5,52.5,57.5,-60,57.5,90,95,-97.5,95,240
1,Kianoush Kermani,M,SBD,MR-T2,74,Raw,1999,CA,73.1,165,175,182.5,182.5,120,125,,125,190,200,-207.5,200,507.5
1,Alexander Efird,M,SBD,MR-T2,93,Raw,1999,CA,92.1,227.5,237.5,-245,237.5,140,145,-152.5,145,265,275,277.5,277.5,660
1,Benson Wu,M,SBD,MR-T3,74,Raw,1997,CA,72.5,142.5,152.5,157.5,157.5,95,100,105,105,195,205,210,210,472.5
1,Chaz Lichtenstern,M,SBD,MR-T3,83,Raw,1998,CA,80.6,150,162.5,170,170,105,115,-122.5,115,180,190,202.5,202.5,487.5
1,Aaron Steele,M,SBD,MR-T3,93,Raw,1998,CA,88.7,125,130,135,135,97.5,-102.5,102.5,102.5,175,182.5,187.5,187.5,425
1,Andrew Elraheb,M,SBD,MR-Y2,66,Raw,2005,CA,66,70,82.5,-90,82.5,32.5,40,45,45,92.5,102.5,110,110,237.5
1,Payton Parkes,M,SBD,MR-Y3,44,Raw,2004,CA,41,47.5,55,60,60,35,40,-47.5,40,70,80,82.5,82.5,182.5
1,Jonathan Elraheb,M,SBD,MR-Y3,53,Raw,2003,CA,51.4,62.5,72.5,-85,72.5,-30,30,40,40,80,90,95,95,207.5
1,Bethany Scamara,F,BD,FR-O,72,Raw,1988,CA,68.7,,,,,47.5,55,60,60,115,125,-132.5,125,185
1,Jene Railsback,F,BD,FR-O,84+,Raw,1990,CA,146.3,,,,,70,80,-92.5,80,155,165,-170,165,245
1,Grace Diaz,F,BD,FR-Y1,43,Raw,2007,CA,43,,,,,12.5,17.5,20,20,50,57.5,65,65,85
1,Mitchell Mason,M,BD,MR-M1b,93,Raw,1971,CA,86,,,,,117.5,125,130,130,175,187.5,195,195,325
1,Gordon Santee,M,BD,MR-M4a,66,Raw,1946,CA,61.3,,,,,65,70,75,75,135,147.5,155,155,230
1,Julio Jesus,M,BD,MR-O,83,Raw,1987,CA,78.7,,,,,115,-117.5,-122.5,115,180,190,-200,190,305
1,Jared Policastro,M,BD,MR-O,93,Raw,1983,CA,91.6,,,,,162.5,-172.5,-172.5,162.5,227.5,237.5,245,245,407.5
2,Sam Kavarsky,M,BD,MR-O,93,Raw,1988,CA,89.6,,,,,-120,120,125,125,210,217.5,227.5,227.5,352.5
